//Maya ASCII 2015 scene
//Name: CH_Tokei_A.ma
//Last modified: Sat, May 16, 2015 01:08:38 PM
//Codeset: 1252
requires maya "2015";
currentUnit -l meter -a degree -t film;
fileInfo "application" "maya";
fileInfo "product" "Maya 2015";
fileInfo "version" "2015";
fileInfo "cutIdentifier" "201410051530-933320";
fileInfo "osv" "Microsoft Windows 8 Home Premium Edition, 64-bit  (Build 9200)\n";
createNode transform -n "CH_Tokei_A";
createNode mesh -n "CH_Tokei_AShape" -p "CH_Tokei_A";
	setAttr -k off ".v";
	setAttr ".iog[0].og[0].gcl" -type "componentList" 1 "f[0:270]";
	setAttr ".vir" yes;
	setAttr ".vif" yes;
	setAttr ".pv" -type "double2" 0.5 0.5 ;
	setAttr ".uvst[0].uvsn" -type "string" "map1";
	setAttr -s 370 ".uvst[0].uvsp";
	setAttr ".uvst[0].uvsp[0:249]" -type "float2" 0.39178503 0.014609774 0.3914431
		 1 0.3914431 0 0.39257878 0.99638867 0.39231932 0.02913845 0.59211379 1 0.59211379
		 0 0.59267664 0.014609778 0.59304464 0.029138461 0.59306866 0.99874318 0.35108384
		 0.23018925 0.375 0.27269304 0.35230696 0.25 0.3772566 0.26808351 0.34963322 0.21055318
		 0.375 0.47730696 0.14769304 0.25 0.14718686 0.23039086 0.1469316 0.21091154 0.37766156
		 0.48085275 0.39973378 0.18609087 0.398886 0.17238553 0.39821133 0.15863124 0.40068224
		 0.19978243 0.5956043 0.17238559 0.59563118 0.18609095 0.59555644 0.19978251 0.59540123
		 0.15863129 0.64769304 0.25 0.625 0.27269304 0.64743555 0.23018925 0.6474188 0.21055318
		 0.62227249 0.26808393 0.85267246 0.23039086 0.85230696 0.25 0.625 0.47730696 0.62231237
		 0.48086062 0.85278624 0.21091154 0.40333673 0.56436461 0.40352321 0.55302906 0.40380758
		 0.54169893 0.40331888 0.57573026 0.59646666 0.55311775 0.59665239 0.56447828 0.59666938
		 0.57586902 0.59618306 0.54176271 0.33339089 0 0.375 0.95839089 0.33513969 0.019171119
		 0.33665088 0.03823166 0.37593168 0.9594053 0.14561045 0.018423716 0.14580455 0 0.375
		 0.77080458 0.37758967 0.76918513 0.14564784 0.036915526 0.40351275 0.70427537 0.40332794
		 0.69312602 0.40331176 0.68192494 0.40379545 0.71540701 0.5966503 0.69354904 0.59646422
		 0.70473212 0.59618026 0.7158978 0.59666771 0.6823144 0.64742756 0.019171119 0.625
		 0.97730696 0.64769304 0 0.62208843 0.97569585 0.64740402 0.03823166 0.625 0.77269304
		 0.85230696 0 0.8526724 0.018423716 0.85278612 0.036915526 0.62230229 0.77122867 0.375
		 0.97919548 0.35419545 0 0.35543376 0.018938495 0.35660863 0.036809176 0.3766396 0.9779017
		 0.37188289 0.22410271 0.375 0.25 0.37930453 0.24418344 0.36924967 0.20107277 0.375
		 0 0.375 1 0.37524009 0.016969303 0.37561232 0.032930993 0.38000613 0.99289209 0.38549984
		 0.18740873 0.38684434 0.20031476 0.38831815 0.21243261 0.38425255 0.17435117 0.60855693
		 1 0.60855693 0 0.60901558 0.016969306 0.60940892 0.032931 0.60757279 0.99774188 0.60993963
		 0.18740879 0.60943985 0.20031483 0.60872775 0.2124327 0.61032134 0.17435122 0.625
		 0 0.625 1 0.62606001 0.018938497 0.62688214 0.036809176 0.61937809 0.99308103 0.62618291
		 0.22410272 0.625 0.25 0.61974835 0.24418357 0.62709123 0.20107278 0.375 0.5 0.125
		 0.25 0.375 0.52113461 0.125 0.22886537 0.375 0.54195035 0.125 0.20804968 0.38015845
		 0.50376981 0.375 0.75 0.125 0 0.375 0.75425684 0.12925686 0 0.38013586 0.7501297
		 0.125 0.020815695 0.375 0.72918433 0.39038274 0.54196656 0.38999504 0.55337095 0.38970736
		 0.56499732 0.3909997 0.53122628 0.38998723 0.70701826 0.39037219 0.71660036 0.3909854
		 0.72565871 0.38970184 0.696769 0.60960937 0.54202813 0.60999739 0.55344552 0.61028516
		 0.56508559 0.60899168 0.53127563 0.6099959 0.70739359 0.6096074 0.71707302 0.60898912
		 0.72624755 0.61028403 0.69706672 0.625 0.5 0.875 0.25 0.625 0.52113461 0.875 0.22886537
		 0.875 0.20804968 0.625 0.54195035 0.6198324 0.50378567 0.625 0.75 0.875 0 0.625 0.75464326
		 0.87035674 0 0.61982906 0.75100142 0.625 0.72918433 0.875 0.020815695 0.38639039
		 0.2311205 0.61157626 0.23112068 0.61182988 0.51442116 0.38815683 0.51438695 0.59125209
		 0.91004795 0.62640893 0.93559146 0.54828393 0.9923526 0.53485513 0.95102358 0.375
		 0.68843985 0.37500033 0.64668643 0.39999998 0.64645267 0.40000001 0.68843985 0.62499988
		 0.64668661 0.62499988 0.68843985 0.5999999 0.68843985 0.59999996 0.64645261 0.61279368
		 0.84374982 0.65625 0.84375 0.4517161 0.9923526 0.46514487 0.95102358 0.42499998 0.64630479
		 0.42500001 0.68843985 0.37359107 0.93559146 0.40874794 0.91004795 0.4499999 0.64621526
		 0.45000002 0.68843985 0.34375 0.84375 0.38720626 0.84374976 0.47500005 0.64616746
		 0.47500002 0.68843985 0.37359107 0.75190854 0.40874791 0.77745229 0.5 0.64615244
		 0.5 0.68843985 0.45171607 0.6951474 0.46514484 0.73647654 0.52499992 0.64616746 0.52499998
		 0.68843985 0.54828387 0.6951474 0.53485513 0.73647654 0.55000019 0.64621526 0.54999995
		 0.68843985 0.62640893 0.75190854 0.59125209 0.77745229 0.57500011 0.64630479 0.57499993
		 0.68843985 0.5961383 0.086401097 0.62640893 0.064408526 0.65625 0.15625 0.61883354
		 0.15625049 0.62499988 0.3125 0.62499988 0.34961572 0.59999961 0.34980324 0.5999999
		 0.3125 0.37500024 0.34961572 0.37500024 0.3125 0.40000001 0.3125 0.39999998 0.34980324
		 0.53672159 0.043233208 0.54828387 0.0076473951 0.42499977 0.3125 0.42499995 0.34991065
		 0.46327826 0.043233246 0.45171607 0.00764741 0.4499996 0.3125 0.44999975 0.34997034
		 0.40386158 0.086401127 0.37359107 0.064408556 0.47499979 0.3125 0.47500005 0.35000014
		 0.38116646 0.15625051 0.34375 0.15625001 0.49999958 0.3125 0.49999997 0.35000914
		 0.40386155 0.22609867 0.37359107 0.24809146 0.52499962 0.3125 0.52499974 0.35000008
		 0.46327814 0.26926622 0.4517161 0.3048526 0.54999995 0.3125 0.54999995 0.34997046
		 0.53672171 0.26926625 0.54828393 0.3048526 0.57499993 0.3125 0.57499969 0.3499108
		 0.59613842 0.22609867 0.62640893 0.24809144 0.3741965 0.20147698 0.35795918 0.24775086
		 0.375 0.25 0.37167022 0.19008516 0.34130639 0.29298076 0.375 0.33514962 0.64204574
		 0.24773388 0.65869641 0.29296893;
	setAttr ".uvst[0].uvsp[250:369]" 0.62581152 0.2014554 0.625 0.25 0.625 0.33514962
		 0.62833536 0.19007543 0.3600947 0.79401028 0.38784796 1 0.375 1 0.37499985 0.9148497
		 0.38784796 0 0.38289416 0.059282247 0.37560162 0.073876634 0.375 0 0.61215204 0 0.61711973
		 0.059303641 0.63990468 0.79401499 0.61215204 1 0.625 0 0.62440664 0.073886365 0.62500012
		 0.91484958 0.625 1 0.30626479 0.22056873 0.34524086 0.18335754 0.28985098 0.25000054
		 0.36765105 0.15183121 0.34539422 0.12913184 0.36857894 0.1215904 0.30629414 0.16733302
		 0.28985038 0 0.63235468 0.15182896 0.65476125 0.18335743 0.69373602 0.22056916 0.71014899
		 0.25000057 0.65460789 0.12913264 0.69370645 0.16733421 0.63142741 0.12159276 0.71014959
		 0 0.30298787 0.37500048 0.69701242 0.375 0.30298761 0.375 0.69701242 0.375 0.73871529
		 0.375 0.73871529 0.375 0.26128292 0.37499499 0.26128474 0.375 0.12500174 0.25000161
		 0.375 0.5 0.625 0.5 0.87499815 0.2500017 0.37499958 0.74999791 0.125 0 0.875 0 0.62500042
		 0.74999768 0.375 0 0.375 0.25 0.625 0.25 0.625 0 0.375 0.5 0.625 0.5 0.375 0.75 0.625
		 0.75 0.375 1 0.625 1 0.875 0.25 0.875 0 0.125 0 0.125 0.25 0.375 0.25 0.375 0 0.125
		 0 0.125 0 0.375 0 0.375 0.25 0.125 0.25 0.125 0.25 0.125 0 0.375 0 0.375 0.25 0.125
		 0.25 0.375 0.25 0.125 0.25 0.375 0 0.125 0 0.125 0 0.375 0 0.375 0.25 0.125 0.25
		 0.375 0 0.625 0 0.625 0.25 0.375 0.25 0.625 0.5 0.375 0.5 0.625 0.75 0.375 0.75 0.625
		 1 0.375 1 0.875 0 0.875 0.25 0.125 0 0.375 0 0.375 0.25 0.125 0.25 0.125 0 0.375
		 0 0.125 0 0.375 0.25 0.125 0.25 0.125 0.25 0.375 0 0.125 0 0.375 0.25 0.125 0.25
		 0.125 0.25 0.375 0.25 0.375 0 0.125 0 0.375 0 0.125 0 0.375 0.25 0.125 0.25;
	setAttr ".cuvs" -type "string" "map1";
	setAttr ".dcc" -type "string" "Ambient+Diffuse";
	setAttr ".covm[0]"  0 1 1;
	setAttr ".cdvm[0]"  0 1 1;
	setAttr -s 296 ".vt";
	setAttr ".vt[0:165]"  -0.36656326 -0.086757205 0.35448465 -0.36527377 -0.098941348 0.34468988
		 -0.36351228 -0.10813507 0.33131 -0.36703527 -0.063960269 0.35806978 0.36527377 -0.098941348 0.34468988
		 0.36656326 -0.086757205 0.35448465 0.36703527 -0.063960269 0.35806978 0.36351228 -0.10813507 0.33131
		 -0.47965157 0.048903197 0.24139629 -0.46985686 0.06108734 0.24010681 -0.45647693 0.070281066 0.2383453
		 -0.4832367 0.026106263 0.24186829 -0.46985686 0.06108734 -0.29872113 -0.47965157 0.048903197 -0.30001065
		 -0.4832367 0.026106263 -0.30048263 -0.45647693 0.070281066 -0.29695961 -0.36527377 0.06108734 0.34468988
		 -0.36656326 0.048903197 0.35448465 -0.36703527 0.026106263 0.35806978 -0.36351228 0.070281066 0.33131
		 0.36656326 0.048903197 0.35448465 0.36527377 0.06108734 0.34468988 0.36351228 0.070281066 0.33131
		 0.36703527 0.026106263 0.35806978 0.46985686 0.06108734 0.24010681 0.47965157 0.048903197 0.24139629
		 0.4832367 0.026106263 0.24186829 0.45647693 0.070281066 0.2383453 0.47965157 0.048903197 -0.30001065
		 0.46985686 0.06108734 -0.29872113 0.45647693 0.070281066 -0.29695961 0.4832367 0.026106263 -0.30048263
		 -0.36656326 0.048903197 -0.41309893 -0.36527377 0.06108734 -0.40330422 -0.36351228 0.070281066 -0.38992432
		 -0.36703527 0.026106263 -0.41668406 0.36527377 0.06108734 -0.40330422 0.36656326 0.048903197 -0.41309893
		 0.36703527 0.026106263 -0.41668406 0.36351228 0.070281066 -0.38992432 -0.46985686 -0.098941348 0.24010681
		 -0.47965157 -0.086757205 0.24139629 -0.4832367 -0.063960269 0.24186829 -0.45647693 -0.10813507 0.2383453
		 -0.47965157 -0.086757205 -0.30001065 -0.46985686 -0.098941348 -0.29872113 -0.45647693 -0.10813507 -0.29695961
		 -0.4832367 -0.063960269 -0.30048263 -0.36527377 -0.098941348 -0.40330422 -0.36656326 -0.086757205 -0.41309893
		 -0.36703527 -0.063960269 -0.41668406 -0.36351228 -0.10813507 -0.38992432 0.36656326 -0.086757205 -0.41309893
		 0.36527377 -0.098941348 -0.40330422 0.36351228 -0.10813507 -0.38992432 0.36703527 -0.063960269 -0.41668406
		 0.47965157 -0.086757205 0.24139629 0.46985686 -0.098941348 0.24010681 0.45647693 -0.10813507 0.2383453
		 0.4832367 -0.063960269 0.24186829 0.46985686 -0.098941348 -0.29872113 0.47965157 -0.086757205 -0.30001065
		 0.4832367 -0.063960269 -0.30048263 0.45647693 -0.10813507 -0.29695961 -0.45567262 -0.098941348 0.29304311
		 -0.46445429 -0.086757205 0.29811323 -0.46766865 -0.063960269 0.29996902 -0.4436765 -0.10813507 0.28611717
		 -0.46445429 0.048903197 0.29811323 -0.45567262 0.06108734 0.29304311 -0.4436765 0.070281066 0.28611717
		 -0.46766865 0.026106263 0.29996902 -0.41821006 -0.098941348 0.33050564 -0.42328018 -0.086757205 0.33928734
		 -0.425136 -0.063960269 0.34250167 -0.41128409 -0.10813507 0.31850955 -0.42328018 0.048903197 0.33928734
		 -0.41821006 0.06108734 0.33050564 -0.41128409 0.070281066 0.31850955 -0.425136 0.026106263 0.34250167
		 0.41821006 -0.098941348 0.33050564 0.42328018 -0.086757205 0.33928734 0.425136 -0.063960269 0.34250167
		 0.41128409 -0.10813507 0.31850955 0.42328018 0.048903197 0.33928734 0.41821006 0.06108734 0.33050564
		 0.41128409 0.070281066 0.31850955 0.425136 0.026106263 0.34250167 0.45567262 -0.098941348 0.29304311
		 0.46445429 -0.086757205 0.29811323 0.46766865 -0.063960269 0.29996902 0.4436765 -0.10813507 0.28611717
		 0.46445429 0.048903197 0.29811323 0.45567262 0.06108734 0.29304311 0.4436765 0.070281066 0.28611717
		 0.46766865 0.026106263 0.29996902 -0.45567262 0.06108734 -0.35165742 -0.46445429 0.048903197 -0.35672751
		 -0.46766865 0.026106263 -0.35858333 -0.4436765 0.070281066 -0.34473148 -0.46445429 -0.086757205 -0.35672751
		 -0.45567262 -0.098941348 -0.35165742 -0.4436765 -0.10813507 -0.34473148 -0.46766865 -0.063960269 -0.35858333
		 -0.41821006 0.06108734 -0.38911995 -0.42328018 0.048903197 -0.39790168 -0.425136 0.026106263 -0.40111601
		 -0.41128409 0.070281066 -0.37712386 -0.42328018 -0.086757205 -0.39790168 -0.41821006 -0.098941348 -0.38911995
		 -0.41128409 -0.10813507 -0.37712386 -0.425136 -0.063960269 -0.40111601 0.41821006 0.06108734 -0.38911995
		 0.42328018 0.048903197 -0.39790168 0.425136 0.026106263 -0.40111601 0.41128409 0.070281066 -0.37712386
		 0.42328018 -0.086757205 -0.39790168 0.41821006 -0.098941348 -0.38911995 0.41128409 -0.10813507 -0.37712386
		 0.425136 -0.063960269 -0.40111601 0.45567262 0.06108734 -0.35165742 0.46445429 0.048903197 -0.35672751
		 0.46766865 0.026106263 -0.35858333 0.4436765 0.070281066 -0.34473148 0.46445429 -0.086757205 -0.35672751
		 0.45567262 -0.098941348 -0.35165742 0.4436765 -0.10813507 -0.34473148 0.46766865 -0.063960269 -0.35858333
		 -0.378373 0.070281066 0.26244652 0.378373 0.070281066 0.26244652 0.37837297 0.070281066 -0.32106084
		 -0.378373 0.070281066 -0.32106084 0.2963171 0.025456848 0.41400132 0.29080743 0.021452941 0.41668412
		 0.29859927 0.027115174 0.40752411 0.25971615 0.05204834 0.41400132 0.25761163 0.045572814 0.41668412
		 0.26058787 0.054731142 0.40752411 0.21447504 0.05204834 0.41400129 0.21657944 0.045572814 0.41668403
		 0.21360327 0.054731142 0.40752402 0.17787401 0.025456848 0.41400129 0.18338375 0.021452941 0.41668403
		 0.17559186 0.027115174 0.40752402 0.1638937 -0.017570801 0.41400129 0.17070414 -0.017570801 0.41668403
		 0.16107273 -0.017570801 0.40752402 0.17787401 -0.060597535 0.41400129 0.18338375 -0.056593321 0.41668403
		 0.17559186 -0.062255554 0.40752402 0.21447504 -0.087189637 0.41400129 0.21657944 -0.080712892 0.41668403
		 0.21360327 -0.089870602 0.40752402 0.25971615 -0.087189637 0.41400132 0.25761163 -0.080712892 0.41668412
		 0.26058787 -0.089870602 0.40752411 0.2963171 -0.060597535 0.41400132 0.29080743 -0.056593321 0.41668412
		 0.29859927 -0.062255554 0.40752411 0.31029737 -0.017570801 0.41400132 0.30348694 -0.017570801 0.41668412
		 0.31311843 -0.017570801 0.40752411 0.29665938 0.025705567 0.35789201 0.29197603 0.022302857 0.35561144
		 0.29859927 0.027115174 0.36339757 0.25984693 0.052450866 0.35789201;
	setAttr ".vt[166:295]" 0.25805804 0.046944886 0.35561144 0.26058787 0.054731142 0.36339757
		 0.21434425 0.052450866 0.35789192 0.2161331 0.046944886 0.35561138 0.21360327 0.054731142 0.36339751
		 0.17753173 0.025705567 0.35789192 0.18221508 0.022302857 0.35561138 0.17559186 0.027115174 0.36339751
		 0.1634706 -0.017570801 0.35789192 0.16925956 -0.017570801 0.35561138 0.16107273 -0.017570801 0.36339751
		 0.17753173 -0.060846254 0.35789192 0.18221508 -0.057443544 0.35561138 0.17559186 -0.062255554 0.36339751
		 0.21434423 -0.08759094 0.35789192 0.21613307 -0.082084961 0.35561138 0.21360327 -0.089870602 0.36339751
		 0.25984696 -0.08759094 0.35789201 0.2580581 -0.082084961 0.35561144 0.26058787 -0.089870602 0.36339757
		 0.29665938 -0.060846254 0.35789201 0.29197603 -0.057443544 0.35561144 0.29859927 -0.062255554 0.36339757
		 0.31072056 -0.017570801 0.35789201 0.30493158 -0.017570801 0.35561144 0.31311843 -0.017570801 0.36339757
		 -0.27169579 -0.015400391 0.35422552 -0.26580015 0.0026144409 0.35422552 -0.25156653 0.010076599 0.35422552
		 0.017400706 0.010076599 0.35422552 0.031634256 0.0026144409 0.35422552 0.037529979 -0.015400391 0.35422552
		 -0.25156653 -0.053622741 0.35422552 -0.26580015 -0.046161193 0.35422552 -0.27169579 -0.028146056 0.35422552
		 0.037529979 -0.028146056 0.35422552 0.031634256 -0.046161193 0.35422552 0.017400706 -0.053622741 0.35422552
		 -0.25075486 0.0049111936 0.38177907 -0.24879503 -0.0075585935 0.38694435 -0.25156653 0.010076599 0.36930898
		 0.01658896 0.0049111936 0.38177907 0.017400706 0.010076599 0.36930898 0.014629219 -0.0075585935 0.38694435
		 -0.25075486 -0.048457641 0.38177907 -0.25156653 -0.053622741 0.36930898 -0.24879503 -0.035987854 0.38694435
		 0.01658896 -0.048457641 0.38177907 0.014629219 -0.035987854 0.38694435 0.017400706 -0.053622741 0.36930898
		 -0.26761478 -0.016427612 0.38177907 -0.27169579 -0.015400391 0.36930898 -0.25776228 -0.018908691 0.38694435
		 -0.26761478 -0.02711853 0.38177907 -0.25776228 -0.024637757 0.38694435 -0.27169579 -0.028146056 0.36930898
		 0.033448912 -0.016427612 0.38177907 0.0235964 -0.018908691 0.38694435 0.037529979 -0.015400391 0.36930898
		 0.033448912 -0.02711853 0.38177907 0.037529979 -0.028146056 0.36930898 0.0235964 -0.024637757 0.38694435
		 -0.26267669 -0.0013388061 0.38177907 -0.26580015 0.0026144409 0.36930898 -0.25513586 -0.010883179 0.38694435
		 0.028510775 -0.0013388061 0.38177907 0.031634256 0.0026144409 0.36930898 0.020969987 -0.010883179 0.38694435
		 -0.26267669 -0.042208251 0.38177907 -0.26580015 -0.046161193 0.36930898 -0.25513586 -0.032663573 0.38694435
		 0.028510775 -0.042208251 0.38177907 0.031634256 -0.046161193 0.36930898 0.020969987 -0.032663573 0.38694435
		 0.69369197 -0.055502623 0.07660614 0.47930622 -0.062976986 0.12210073 0.69369197 -0.010895081 0.076605968
		 0.47930622 -0.0034207152 0.12210045 0.69369185 -0.010895385 -0.19490463 0.47930622 -0.0034207152 -0.24039921
		 0.69369197 -0.055502623 -0.19490463 0.47930622 -0.062976986 -0.24039917 0.91195649 -0.055502623 -0.19490463
		 0.91195649 -0.055502623 0.07660614 0.91195649 -0.010895081 0.076605968 0.91195649 -0.010895385 -0.19490463
		 1.28561091 -0.055502623 -0.19490463 1.28561091 -0.055502623 0.07660614 1.28561091 -0.010895081 0.076605968
		 1.28561091 -0.010895385 -0.19490463 1.099617839 -0.010895385 -0.19490463 1.099617839 -0.010895081 0.076605968
		 1.099617839 -0.055502623 0.07660614 1.099617839 -0.055502623 -0.19490463 1.46874666 -0.055502623 -0.19490463
		 1.46874666 -0.055502623 0.07660614 1.46874666 -0.010895081 0.076605968 1.46874666 -0.010895385 -0.19490463
		 1.53280306 -0.055502623 -0.16438007 1.53280306 -0.055502623 0.04608158 1.53280306 -0.010895081 0.046081446
		 1.53280306 -0.010895385 -0.16438007 -0.69369197 -0.055502623 0.07660614 -0.47930622 -0.062976986 0.12210073
		 -0.69369197 -0.010895081 0.076605968 -0.47930622 -0.0034207152 0.12210045 -0.69369185 -0.010895385 -0.19490463
		 -0.47930622 -0.0034207152 -0.24039921 -0.69369197 -0.055502623 -0.19490463 -0.47930622 -0.062976986 -0.24039917
		 -0.91195649 -0.055502623 -0.19490463 -0.91195649 -0.055502623 0.07660614 -0.91195649 -0.010895081 0.076605968
		 -0.91195649 -0.010895385 -0.19490463 -1.28561091 -0.055502623 -0.19490463 -1.28561091 -0.055502623 0.07660614
		 -1.28561091 -0.010895081 0.076605968 -1.28561091 -0.010895385 -0.19490463 -1.099617839 -0.010895385 -0.19490463
		 -1.099617839 -0.010895081 0.076605968 -1.099617839 -0.055502623 0.07660614 -1.099617839 -0.055502623 -0.19490463
		 -1.46874666 -0.055502623 -0.19490463 -1.46874666 -0.055502623 0.07660614 -1.46874666 -0.010895081 0.076605968
		 -1.46874666 -0.010895385 -0.19490463 -1.53280306 -0.055502623 -0.16438007 -1.53280306 -0.055502623 0.04608158
		 -1.53280306 -0.010895081 0.046081446 -1.53280306 -0.010895385 -0.16438007;
	setAttr -s 558 ".ed";
	setAttr ".ed[0:165]"  2 1 1 1 72 1 72 75 1 75 2 1 1 0 1 0 73 1 73 72 1 0 3 1
		 3 74 1 74 73 1 0 5 1 5 6 1 6 3 1 1 4 1 4 5 1 2 7 1 7 4 1 5 81 1 81 82 1 82 6 1 4 80 1
		 80 81 1 7 83 1 83 80 1 10 9 1 9 69 1 69 70 1 70 10 1 9 8 1 8 68 1 68 69 1 8 11 1
		 11 71 1 71 68 1 8 13 1 13 14 1 14 11 1 9 12 1 12 13 1 10 15 1 15 12 1 13 97 1 97 98 1
		 98 14 1 12 96 1 96 97 1 15 99 1 99 96 1 18 17 1 17 76 1 76 79 1 79 18 1 17 16 1 16 77 1
		 77 76 1 16 19 1 19 78 1 78 77 1 16 21 1 21 22 1 22 19 1 17 20 1 20 21 1 18 23 1 23 20 1
		 21 85 1 85 86 1 86 22 1 20 84 1 84 85 1 23 87 1 87 84 1 26 25 1 25 92 1 92 95 1 95 26 1
		 25 24 1 24 93 1 93 92 1 24 27 1 27 94 1 94 93 1 24 29 1 29 30 1 30 27 1 25 28 1 28 29 1
		 26 31 1 31 28 1 29 120 1 120 123 1 123 30 1 28 121 1 121 120 1 31 122 1 122 121 1
		 34 33 1 33 104 1 104 107 1 107 34 1 33 32 1 32 105 1 105 104 1 32 35 1 35 106 1 106 105 1
		 32 37 1 37 38 1 38 35 1 33 36 1 36 37 1 34 39 1 39 36 1 37 113 1 113 114 1 114 38 1
		 36 112 1 112 113 1 39 115 1 115 112 1 42 41 1 41 65 1 65 66 1 66 42 1 41 40 1 40 64 1
		 64 65 1 40 43 1 43 67 1 67 64 1 40 45 1 45 46 1 46 43 1 41 44 1 44 45 1 42 47 1 47 44 1
		 45 101 1 101 102 1 102 46 1 44 100 1 100 101 1 47 103 1 103 100 1 50 49 1 49 108 1
		 108 111 1 111 50 1 49 48 1 48 109 1 109 108 1 48 51 1 51 110 1 110 109 1 48 53 1
		 53 54 1 54 51 1 49 52 1 52 53 1 50 55 1 55 52 1 53 117 1 117 118 1 118 54 1 52 116 1
		 116 117 1;
	setAttr ".ed[166:331]" 55 119 1 119 116 1 58 57 1 57 88 1 88 91 1 91 58 1 57 56 1
		 56 89 1 89 88 1 56 59 1 59 90 1 90 89 1 56 61 1 61 62 1 62 59 1 57 60 1 60 61 1 58 63 1
		 63 60 1 61 124 1 124 127 1 127 62 1 60 125 1 125 124 1 63 126 1 126 125 1 65 73 1
		 74 66 1 64 72 1 67 75 1 69 77 1 78 70 1 68 76 1 71 79 1 81 89 1 90 82 1 80 88 1 83 91 1
		 85 93 1 94 86 1 84 92 1 87 95 1 97 105 1 106 98 1 96 104 1 99 107 1 101 109 1 110 102 1
		 100 108 1 103 111 1 113 121 1 122 114 1 112 120 1 115 123 1 117 125 1 126 118 1 116 124 1
		 119 127 1 18 3 1 6 23 1 50 35 1 38 55 1 26 59 1 62 31 1 14 47 1 42 11 1 66 71 1 74 79 1
		 82 87 1 90 95 1 98 103 1 106 111 1 114 119 1 122 127 1 70 128 1 10 128 1 78 128 1
		 19 128 1 22 129 1 129 128 1 86 129 1 94 129 1 27 129 1 30 130 1 130 129 1 123 130 1
		 115 130 1 39 130 1 34 131 1 131 130 1 107 131 1 99 131 1 15 131 1 128 131 1 133 132 1
		 132 135 1 135 136 1 136 133 1 132 134 1 134 137 1 137 135 1 132 159 1 159 161 1 161 134 1
		 133 160 1 160 159 1 135 138 1 138 139 1 139 136 1 137 140 1 140 138 1 138 141 1 141 142 1
		 142 139 1 140 143 1 143 141 1 141 144 1 144 145 1 145 142 1 143 146 1 146 144 1 144 147 1
		 147 148 1 148 145 1 146 149 1 149 147 1 147 150 1 150 151 1 151 148 1 149 152 1 152 150 1
		 150 153 1 153 154 1 154 151 1 152 155 1 155 153 1 153 156 1 156 157 1 157 154 1 155 158 1
		 158 156 1 156 159 1 160 157 1 158 161 1 163 162 1 162 189 1 189 190 1 190 163 1 162 164 1
		 164 191 1 191 189 1 162 165 1 165 167 1 167 164 1 163 166 1 166 165 1 165 168 1 168 170 1
		 170 167 1 166 169 1 169 168 1 168 171 1 171 173 1 173 170 1 169 172 1 172 171 1;
	setAttr ".ed[332:497]" 171 174 1 174 176 1 176 173 1 172 175 1 175 174 1 174 177 1
		 177 179 1 179 176 1 175 178 1 178 177 1 177 180 1 180 182 1 182 179 1 178 181 1 181 180 1
		 180 183 1 183 185 1 185 182 1 181 184 1 184 183 1 183 186 1 186 188 1 188 185 1 184 187 1
		 187 186 1 186 189 1 191 188 1 187 190 1 167 137 1 134 164 1 170 140 1 173 143 1 176 146 1
		 179 149 1 182 152 1 185 155 1 188 158 1 191 161 1 192 200 0 194 195 0 197 201 0 198 203 0
		 193 192 0 194 193 0 196 195 0 197 196 0 199 198 0 200 199 0 202 201 0 203 202 0 205 204 1
		 204 228 1 228 230 1 230 205 1 204 206 1 206 229 1 229 228 1 204 207 1 207 208 1 208 206 1
		 205 209 1 209 207 1 207 231 1 231 232 1 232 208 1 209 233 1 233 231 1 211 210 1 210 234 1
		 234 235 1 235 211 1 210 212 1 212 236 1 236 234 1 210 213 1 213 214 1 214 212 1 211 215 1
		 215 213 1 213 237 1 237 239 1 239 214 1 215 238 1 238 237 1 217 216 1 216 228 1 229 217 1
		 216 218 1 218 230 1 216 219 1 219 220 1 220 218 1 217 221 1 221 219 1 219 234 1 236 220 1
		 221 235 1 223 222 1 222 231 1 233 223 1 222 224 1 224 232 1 222 225 1 225 226 1 226 224 1
		 223 227 1 227 225 1 225 237 1 238 226 1 227 239 1 194 206 1 208 195 1 211 198 1 203 215 1
		 226 201 1 197 224 1 200 221 1 217 192 1 229 193 1 232 196 1 235 199 1 238 202 1 240 241 1
		 242 243 1 244 245 1 246 247 1 240 242 1 241 243 1 242 244 1 243 245 1 244 246 1 245 247 1
		 246 240 1 247 241 1 246 248 1 240 249 1 248 249 1 242 250 1 249 250 1 244 251 1 250 251 1
		 251 248 1 248 259 1 249 258 1 252 253 1 250 257 1 253 254 1 251 256 1 254 255 1 255 252 1
		 256 255 1 257 254 1 256 257 1 258 253 1 257 258 1 259 252 1 258 259 1 259 256 1 252 260 1
		 253 261 1 260 261 1 254 262 1 261 262 1 255 263 1 262 263 1 263 260 1;
	setAttr ".ed[498:557]" 260 264 1 261 265 1 264 265 1 262 266 1 265 266 1 263 267 1
		 266 267 1 267 264 1 268 269 1 270 271 1 272 273 1 274 275 1 268 270 1 269 271 1 270 272 1
		 271 273 1 272 274 1 273 275 1 274 268 1 275 269 1 274 276 1 268 277 1 276 277 1 270 278 1
		 277 278 1 272 279 1 278 279 1 279 276 1 276 287 1 277 286 1 280 281 1 278 285 1 281 282 1
		 279 284 1 282 283 1 283 280 1 284 283 1 285 282 1 284 285 1 286 281 1 285 286 1 287 280 1
		 286 287 1 287 284 1 280 288 1 281 289 1 288 289 1 282 290 1 289 290 1 283 291 1 290 291 1
		 291 288 1 288 292 1 289 293 1 292 293 1 290 294 1 293 294 1 291 295 1 294 295 1 295 292 1;
	setAttr -s 271 -ch 1104 ".fc[0:270]" -type "polyFaces" 
		f 4 0 1 2 3
		mu 0 4 3 1 84 87
		f 4 4 5 6 -2
		mu 0 4 2 0 85 83
		f 4 7 8 9 -6
		mu 0 4 0 4 86 85
		f 4 -8 10 11 12
		mu 0 4 4 0 7 8
		f 4 -5 13 14 -11
		mu 0 4 0 2 6 7
		f 4 -1 15 16 -14
		mu 0 4 1 3 9 5
		f 4 -12 17 18 19
		mu 0 4 8 7 94 95
		f 4 -15 20 21 -18
		mu 0 4 7 6 93 94
		f 4 -17 22 23 -21
		mu 0 4 5 9 96 92
		f 4 24 25 26 27
		mu 0 4 13 11 80 81
		f 4 28 29 30 -26
		mu 0 4 12 10 79 80
		f 4 31 32 33 -30
		mu 0 4 10 14 82 79
		f 4 -32 34 35 36
		mu 0 4 14 10 17 18
		f 4 -29 37 38 -35
		mu 0 4 10 12 16 17
		f 4 -25 39 40 -38
		mu 0 4 11 13 19 15
		f 4 -36 41 42 43
		mu 0 4 18 17 113 115
		f 4 -39 44 45 -42
		mu 0 4 17 16 111 113
		f 4 -41 46 47 -45
		mu 0 4 15 19 116 110
		f 4 48 49 50 51
		mu 0 4 22 21 88 91
		f 4 52 53 54 -50
		mu 0 4 21 20 89 88
		f 4 55 56 57 -54
		mu 0 4 20 23 90 89
		f 4 -56 58 59 60
		mu 0 4 23 20 25 26
		f 4 -53 61 62 -59
		mu 0 4 20 21 24 25
		f 4 -49 63 64 -62
		mu 0 4 21 22 27 24
		f 4 -60 65 66 67
		mu 0 4 26 25 98 99
		f 4 -63 68 69 -66
		mu 0 4 25 24 97 98
		f 4 -65 70 71 -69
		mu 0 4 24 27 100 97
		f 4 72 73 74 75
		mu 0 4 31 30 106 109
		f 4 76 77 78 -74
		mu 0 4 30 28 107 106
		f 4 79 80 81 -78
		mu 0 4 29 32 108 107
		f 4 -80 82 83 84
		mu 0 4 32 29 35 36
		f 4 -77 85 86 -83
		mu 0 4 28 30 33 34
		f 4 -73 87 88 -86
		mu 0 4 30 31 37 33
		f 4 -84 89 90 91
		mu 0 4 36 35 140 146
		f 4 -87 92 93 -90
		mu 0 4 34 33 143 141
		f 4 -89 94 95 -93
		mu 0 4 33 37 144 143
		f 4 96 97 98 99
		mu 0 4 40 39 124 127
		f 4 100 101 102 -98
		mu 0 4 39 38 125 124
		f 4 103 104 105 -102
		mu 0 4 38 41 126 125
		f 4 -104 106 107 108
		mu 0 4 41 38 43 44
		f 4 -101 109 110 -107
		mu 0 4 38 39 42 43
		f 4 -97 111 112 -110
		mu 0 4 39 40 45 42
		f 4 -108 113 114 115
		mu 0 4 44 43 133 134
		f 4 -111 116 117 -114
		mu 0 4 43 42 132 133
		f 4 -113 118 119 -117
		mu 0 4 42 45 135 132
		f 4 120 121 122 123
		mu 0 4 49 48 76 77
		f 4 124 125 126 -122
		mu 0 4 48 46 75 76
		f 4 127 128 129 -126
		mu 0 4 47 50 78 74
		f 4 -128 130 131 132
		mu 0 4 50 47 53 54
		f 4 -125 133 134 -131
		mu 0 4 46 48 51 52
		f 4 -121 135 136 -134
		mu 0 4 48 49 55 51
		f 4 -132 137 138 139
		mu 0 4 54 53 119 121
		f 4 -135 140 141 -138
		mu 0 4 52 51 118 120
		f 4 -137 142 143 -141
		mu 0 4 51 55 122 118
		f 4 144 145 146 147
		mu 0 4 58 57 128 131
		f 4 148 149 150 -146
		mu 0 4 57 56 129 128
		f 4 151 152 153 -150
		mu 0 4 56 59 130 129
		f 4 -152 154 155 156
		mu 0 4 59 56 61 62
		f 4 -149 157 158 -155
		mu 0 4 56 57 60 61
		f 4 -145 159 160 -158
		mu 0 4 57 58 63 60
		f 4 -156 161 162 163
		mu 0 4 62 61 137 138
		f 4 -159 164 165 -162
		mu 0 4 61 60 136 137
		f 4 -161 166 167 -165
		mu 0 4 60 63 139 136
		f 4 168 169 170 171
		mu 0 4 67 65 102 105
		f 4 172 173 174 -170
		mu 0 4 66 64 103 101
		f 4 175 176 177 -174
		mu 0 4 64 68 104 103
		f 4 -176 178 179 180
		mu 0 4 68 64 71 72
		f 4 -173 181 182 -179
		mu 0 4 64 66 70 71
		f 4 -169 183 184 -182
		mu 0 4 65 67 73 69
		f 4 -180 185 186 187
		mu 0 4 72 71 148 153
		f 4 -183 188 189 -186
		mu 0 4 71 70 150 148
		f 4 -185 190 191 -189
		mu 0 4 69 73 151 149
		f 4 -123 192 -10 193
		mu 0 4 77 76 85 86
		f 4 -127 194 -7 -193
		mu 0 4 76 75 83 85
		f 4 -130 195 -3 -195
		mu 0 4 74 78 87 84
		f 4 -27 196 -58 197
		mu 0 4 81 80 89 90
		f 4 -31 198 -55 -197
		mu 0 4 80 79 88 89
		f 4 -34 199 -51 -199
		mu 0 4 79 82 91 88
		f 4 -19 200 -178 201
		mu 0 4 95 94 103 104
		f 4 -22 202 -175 -201
		mu 0 4 94 93 101 103
		f 4 -24 203 -171 -203
		mu 0 4 92 96 105 102
		f 4 -67 204 -82 205
		mu 0 4 99 98 107 108
		f 4 -70 206 -79 -205
		mu 0 4 98 97 106 107
		f 4 -72 207 -75 -207
		mu 0 4 97 100 109 106
		f 4 -43 208 -106 209
		mu 0 4 114 112 125 126
		f 4 -46 210 -103 -209
		mu 0 4 112 110 124 125
		f 4 -48 211 -99 -211
		mu 0 4 110 116 127 124
		f 4 -139 212 -154 213
		mu 0 4 121 119 129 130
		f 4 -142 214 -151 -213
		mu 0 4 119 117 128 129
		f 4 -144 215 -147 -215
		mu 0 4 117 123 131 128
		f 4 -115 216 -96 217
		mu 0 4 134 133 142 145
		f 4 -118 218 -94 -217
		mu 0 4 133 132 140 142
		f 4 -120 219 -91 -219
		mu 0 4 132 135 146 140
		f 4 -163 220 -192 221
		mu 0 4 138 137 149 151
		f 4 -166 222 -190 -221
		mu 0 4 137 136 147 149
		f 4 -168 223 -187 -223
		mu 0 4 136 139 152 147
		f 4 224 -13 225 -64
		mu 0 4 22 4 8 27
		f 4 226 -109 227 -160
		mu 0 4 58 41 44 63
		f 4 228 -181 229 -88
		mu 0 4 31 68 72 37
		f 4 230 -136 231 -37
		mu 0 4 18 55 49 14
		f 4 -124 232 -33 -232
		mu 0 4 49 77 82 14
		f 4 -194 233 -200 -233
		mu 0 4 77 86 91 82
		f 4 -9 -225 -52 -234
		mu 0 4 86 4 22 91
		f 4 -20 234 -71 -226
		mu 0 4 8 95 100 27
		f 4 -202 235 -208 -235
		mu 0 4 95 104 109 100
		f 4 -177 -229 -76 -236
		mu 0 4 104 68 31 109
		f 4 -44 236 -143 -231
		mu 0 4 18 115 122 55
		f 4 -210 237 -216 -237
		mu 0 4 114 126 131 123
		f 4 -105 -227 -148 -238
		mu 0 4 126 41 58 131
		f 4 -116 238 -167 -228
		mu 0 4 44 134 139 63
		f 4 -218 239 -224 -239
		mu 0 4 134 145 152 139
		f 4 -95 -230 -188 -240
		mu 0 4 144 37 72 153
		f 4 -246 -251 -256 -260
		mu 0 4 154 155 156 157
		f 16 -184 -172 -204 -23 -16 -4 -196 -129 -133 -140 -214 -153 -157 -164 -222 -191
		mu 0 16 73 67 105 96 9 3 87 78 50 54 121 130 59 62 138 151
		f 3 -28 240 -242
		mu 0 3 13 81 154
		f 3 -198 242 -241
		mu 0 3 81 90 154
		f 3 -57 243 -243
		mu 0 3 90 23 154
		f 4 -61 244 245 -244
		mu 0 4 23 26 155 154
		f 3 -68 246 -245
		mu 0 3 26 99 155
		f 3 -206 247 -247
		mu 0 3 99 108 155
		f 3 -81 248 -248
		mu 0 3 108 32 155
		f 4 -85 249 250 -249
		mu 0 4 32 36 156 155
		f 3 -92 251 -250
		mu 0 3 36 146 156
		f 3 -220 252 -252
		mu 0 3 146 135 156
		f 3 -119 253 -253
		mu 0 3 135 45 156
		f 4 -112 254 255 -254
		mu 0 4 45 40 157 156
		f 3 -100 256 -255
		mu 0 3 40 127 157
		f 3 -212 257 -257
		mu 0 3 127 116 157
		f 3 -47 258 -258
		mu 0 3 116 19 157
		f 4 -40 241 259 -259
		mu 0 4 19 13 154 157
		f 4 260 261 262 263
		mu 0 4 158 159 160 161
		f 4 264 265 266 -262
		mu 0 4 162 163 164 165
		f 4 -265 267 268 269
		mu 0 4 166 167 168 169
		f 4 -261 270 271 -268
		mu 0 4 159 158 170 171
		f 4 -263 272 273 274
		mu 0 4 161 160 172 173
		f 4 -267 275 276 -273
		mu 0 4 165 164 174 175
		f 4 -274 277 278 279
		mu 0 4 173 172 176 177
		f 4 -277 280 281 -278
		mu 0 4 175 174 178 179
		f 4 -279 282 283 284
		mu 0 4 177 176 180 181
		f 4 -282 285 286 -283
		mu 0 4 179 178 182 183
		f 4 -284 287 288 289
		mu 0 4 181 180 184 185
		f 4 -287 290 291 -288
		mu 0 4 183 182 186 187
		f 4 -289 292 293 294
		mu 0 4 185 184 188 189
		f 4 -292 295 296 -293
		mu 0 4 187 186 190 191
		f 4 -294 297 298 299
		mu 0 4 189 188 192 193
		f 4 -297 300 301 -298
		mu 0 4 191 190 194 195
		f 4 -299 302 303 304
		mu 0 4 193 192 196 197
		f 4 -302 305 306 -303
		mu 0 4 195 194 198 199
		f 4 -304 307 -272 308
		mu 0 4 197 196 171 170
		f 4 -307 309 -269 -308
		mu 0 4 199 198 169 168
		f 10 -264 -275 -280 -285 -290 -295 -300 -305 -309 -271
		mu 0 10 158 161 173 177 181 185 189 193 197 170
		f 4 310 311 312 313
		mu 0 4 200 201 202 203
		f 4 314 315 316 -312
		mu 0 4 204 205 206 207
		f 4 -315 317 318 319
		mu 0 4 208 209 210 211
		f 4 -311 320 321 -318
		mu 0 4 201 200 212 213
		f 4 -319 322 323 324
		mu 0 4 211 210 214 215
		f 4 -322 325 326 -323
		mu 0 4 213 212 216 217
		f 4 -324 327 328 329
		mu 0 4 215 214 218 219
		f 4 -327 330 331 -328
		mu 0 4 217 216 220 221
		f 4 -329 332 333 334
		mu 0 4 219 218 222 223
		f 4 -332 335 336 -333
		mu 0 4 221 220 224 225
		f 4 -334 337 338 339
		mu 0 4 223 222 226 227
		f 4 -337 340 341 -338
		mu 0 4 225 224 228 229
		f 4 -339 342 343 344
		mu 0 4 227 226 230 231
		f 4 -342 345 346 -343
		mu 0 4 229 228 232 233
		f 4 -344 347 348 349
		mu 0 4 231 230 234 235
		f 4 -347 350 351 -348
		mu 0 4 233 232 236 237
		f 4 -349 352 353 354
		mu 0 4 235 234 238 239
		f 4 -352 355 356 -353
		mu 0 4 237 236 240 241
		f 4 -354 357 -317 358
		mu 0 4 239 238 207 206
		f 4 -357 359 -313 -358
		mu 0 4 241 240 203 202
		f 10 -314 -360 -356 -351 -346 -341 -336 -331 -326 -321
		mu 0 10 200 203 240 236 232 228 224 220 216 212
		f 4 -320 360 -266 361
		mu 0 4 208 211 164 163
		f 4 -325 362 -276 -361
		mu 0 4 211 215 174 164
		f 4 -330 363 -281 -363
		mu 0 4 215 219 178 174
		f 4 -335 364 -286 -364
		mu 0 4 219 223 182 178
		f 4 -340 365 -291 -365
		mu 0 4 223 227 186 182
		f 4 -345 366 -296 -366
		mu 0 4 227 231 190 186
		f 4 -350 367 -301 -367
		mu 0 4 231 235 194 190
		f 4 -355 368 -306 -368
		mu 0 4 235 239 198 194
		f 4 -359 369 -310 -369
		mu 0 4 239 206 169 198
		f 4 -316 -362 -270 -370
		mu 0 4 206 205 166 169
		f 4 382 383 384 385
		mu 0 4 242 243 244 245
		f 4 386 387 388 -384
		mu 0 4 243 246 247 244
		f 4 -387 389 390 391
		mu 0 4 246 243 248 249
		f 4 -383 392 393 -390
		mu 0 4 243 242 250 248
		f 4 -391 394 395 396
		mu 0 4 249 248 251 252
		f 4 -394 397 398 -395
		mu 0 4 248 250 253 251
		f 4 399 400 401 402
		mu 0 4 254 255 256 257
		f 4 403 404 405 -401
		mu 0 4 258 259 260 261
		f 4 -404 406 407 408
		mu 0 4 259 258 262 263
		f 4 -400 409 410 -407
		mu 0 4 255 254 264 265
		f 4 -408 411 412 413
		mu 0 4 263 262 266 267
		f 4 -411 414 415 -412
		mu 0 4 265 264 268 269
		f 4 416 417 -389 418
		mu 0 4 270 271 244 272
		f 4 419 420 -385 -418
		mu 0 4 271 273 245 244
		f 4 -420 421 422 423
		mu 0 4 273 271 274 275
		f 4 -417 424 425 -422
		mu 0 4 271 270 276 274
		f 4 -423 426 -406 427
		mu 0 4 275 274 261 260
		f 4 -426 428 -402 -427
		mu 0 4 274 276 277 261
		f 4 429 430 -399 431
		mu 0 4 278 279 251 253
		f 4 432 433 -396 -431
		mu 0 4 279 280 281 251
		f 4 -433 434 435 436
		mu 0 4 280 279 282 283
		f 4 -430 437 438 -435
		mu 0 4 279 278 284 282
		f 4 -436 439 -416 440
		mu 0 4 283 282 266 285
		f 4 -439 441 -413 -440
		mu 0 4 282 284 267 266
		f 4 442 -392 443 -372
		mu 0 4 286 246 249 287
		f 4 444 373 445 -410
		mu 0 4 254 288 289 264
		f 4 446 -373 447 -437
		mu 0 4 283 290 291 280
		f 4 448 -425 449 370
		mu 0 4 292 276 270 293
		f 4 -419 450 374 -450
		mu 0 4 270 272 294 293
		f 4 -388 -443 375 -451
		mu 0 4 247 246 286 295
		f 4 -397 451 376 -444
		mu 0 4 249 252 296 287
		f 4 -434 -448 377 -452
		mu 0 4 281 280 291 297
		f 4 -403 452 378 -445
		mu 0 4 254 257 298 288
		f 4 -429 -449 379 -453
		mu 0 4 277 276 292 299
		f 4 -441 453 380 -447
		mu 0 4 283 285 300 290
		f 4 -415 -446 381 -454
		mu 0 4 268 264 289 301
		f 12 -428 -405 -409 -414 -442 -438 -432 -398 -393 -386 -421 -424
		mu 0 12 275 260 259 263 267 284 278 253 250 242 245 273
		f 4 458 455 -460 -455
		mu 0 4 302 303 304 305
		f 4 460 456 -462 -456
		mu 0 4 303 306 307 304
		f 4 462 457 -464 -457
		mu 0 4 306 308 309 307
		f 4 464 454 -466 -458
		mu 0 4 308 310 311 309
		f 4 459 461 463 465
		mu 0 4 305 304 312 313
		f 4 -506 -505 -503 -501
		mu 0 4 314 315 316 317
		f 4 466 468 -468 -465
		mu 0 4 318 319 320 302
		f 4 467 470 -470 -459
		mu 0 4 302 320 321 303
		f 4 469 472 -472 -461
		mu 0 4 303 321 322 323
		f 4 471 473 -467 -463
		mu 0 4 323 322 319 318
		f 4 474 -489 -476 -469
		mu 0 4 319 324 325 320
		f 4 475 -487 -478 -471
		mu 0 4 320 325 326 321
		f 4 477 -485 -480 -473
		mu 0 4 321 326 327 322
		f 4 479 -490 -475 -474
		mu 0 4 322 327 324 319
		f 4 483 480 -483 484
		mu 0 4 326 328 329 327
		f 4 485 478 -484 486
		mu 0 4 325 330 328 326
		f 4 487 476 -486 488
		mu 0 4 324 331 330 325
		f 4 482 481 -488 489
		mu 0 4 327 329 331 324
		f 4 490 492 -492 -477
		mu 0 4 331 332 333 330
		f 4 491 494 -494 -479
		mu 0 4 330 333 334 328
		f 4 493 496 -496 -481
		mu 0 4 328 334 335 329
		f 4 495 497 -491 -482
		mu 0 4 329 335 332 331
		f 4 498 500 -500 -493
		mu 0 4 332 314 317 333
		f 4 499 502 -502 -495
		mu 0 4 333 317 316 334
		f 4 501 504 -504 -497
		mu 0 4 334 316 315 335
		f 4 503 505 -499 -498
		mu 0 4 335 315 314 332
		f 4 506 511 -508 -511
		mu 0 4 336 337 338 339
		f 4 507 513 -509 -513
		mu 0 4 339 338 340 341
		f 4 508 515 -510 -515
		mu 0 4 341 340 342 343
		f 4 509 517 -507 -517
		mu 0 4 343 342 344 345
		f 4 -518 -516 -514 -512
		mu 0 4 337 346 347 338
		f 4 552 554 556 557
		mu 0 4 348 349 350 351
		f 4 516 519 -521 -519
		mu 0 4 352 336 353 354
		f 4 510 521 -523 -520
		mu 0 4 336 339 355 353
		f 4 512 523 -525 -522
		mu 0 4 339 356 357 355
		f 4 514 518 -526 -524
		mu 0 4 356 352 354 357
		f 4 520 527 540 -527
		mu 0 4 354 353 358 359
		f 4 522 529 538 -528
		mu 0 4 353 355 360 358
		f 4 524 531 536 -530
		mu 0 4 355 357 361 360
		f 4 525 526 541 -532
		mu 0 4 357 354 359 361
		f 4 -537 534 -533 -536
		mu 0 4 360 361 362 363
		f 4 -539 535 -531 -538
		mu 0 4 358 360 363 364
		f 4 -541 537 -529 -540
		mu 0 4 359 358 364 365
		f 4 -542 539 -534 -535
		mu 0 4 361 359 365 362
		f 4 528 543 -545 -543
		mu 0 4 365 364 366 367
		f 4 530 545 -547 -544
		mu 0 4 364 363 368 366
		f 4 532 547 -549 -546
		mu 0 4 363 362 369 368
		f 4 533 542 -550 -548
		mu 0 4 362 365 367 369
		f 4 544 551 -553 -551
		mu 0 4 367 366 349 348
		f 4 546 553 -555 -552
		mu 0 4 366 368 350 349
		f 4 548 555 -557 -554
		mu 0 4 368 369 351 350
		f 4 549 550 -558 -556
		mu 0 4 369 367 348 351;
	setAttr ".cd" -type "dataPolyComponent" Index_Data Edge 0 ;
	setAttr ".cvd" -type "dataPolyComponent" Index_Data Vertex 0 ;
	setAttr ".hfd" -type "dataPolyComponent" Index_Data Face 0 ;
createNode groupId -n "groupId2";
	setAttr ".ihi" 0;
select -ne :time1;
	setAttr ".o" 0;
select -ne :renderPartition;
	setAttr -s 3 ".st";
select -ne :renderGlobalsList1;
select -ne :defaultShaderList1;
	setAttr -s 3 ".s";
select -ne :postProcessList1;
	setAttr -s 2 ".p";
select -ne :defaultRenderUtilityList1;
select -ne :defaultRenderingList1;
select -ne :defaultTextureList1;
select -ne :initialShadingGroup;
	setAttr -s 5 ".dsm";
	setAttr ".ro" yes;
	setAttr -s 2 ".gn";
select -ne :initialParticleSE;
	setAttr ".ro" yes;
select -ne :defaultResolution;
	setAttr ".pa" 1;
select -ne :hardwareRenderGlobals;
	setAttr ".ctrs" 256;
	setAttr ".btrs" 512;
select -ne :hardwareRenderingGlobals;
	setAttr ".otfna" -type "stringArray" 22 "NURBS Curves" "NURBS Surfaces" "Polygons" "Subdiv Surface" "Particles" "Particle Instance" "Fluids" "Strokes" "Image Planes" "UI" "Lights" "Cameras" "Locators" "Joints" "IK Handles" "Deformers" "Motion Trails" "Components" "Hair Systems" "Follicles" "Misc. UI" "Ornaments"  ;
	setAttr ".otfva" -type "Int32Array" 22 0 1 1 1 1 1
		 1 1 1 0 0 0 0 0 0 0 0 0
		 0 0 0 0 ;
select -ne :defaultHardwareRenderGlobals;
	setAttr ".res" -type "string" "ntsc_4d 646 485 1.333";
connectAttr "groupId2.id" "CH_Tokei_AShape.iog.og[0].gid";
connectAttr ":initialShadingGroup.mwc" "CH_Tokei_AShape.iog.og[0].gco";
connectAttr "CH_Tokei_AShape.iog.og[0]" ":initialShadingGroup.dsm" -na;
connectAttr "groupId2.msg" ":initialShadingGroup.gn" -na;
// End of CH_Tokei_A.ma
