//Maya ASCII 2015 scene
//Name: CH_Tokei_A.ma
//Last modified: Sat, May 16, 2015 01:08:39 PM
//Codeset: 1252
file -rdi 1 -ns "Thomas" -rfn "ThomasRN" "G:/ninjaegg-nngj2-bteam/3D//Scenes/Assets/Level/_LDN/LVL_Planet_A.ma";
file -r -ns "Thomas" -dr 1 -rfn "ThomasRN" "G:/ninjaegg-nngj2-bteam/3D//Scenes/Assets/Level/_LDN/LVL_Planet_A.ma";
requires maya "2015";
currentUnit -l meter -a degree -t film;
fileInfo "application" "maya";
fileInfo "product" "Maya 2015";
fileInfo "version" "2015";
fileInfo "cutIdentifier" "201410051530-933320";
fileInfo "osv" "Microsoft Windows 8 Home Premium Edition, 64-bit  (Build 9200)\n";
createNode transform -s -n "persp";
	setAttr ".v" no;
	setAttr ".t" -type "double3" -7.1714270482163434 3.9766586898302969 7.6420895734625791 ;
	setAttr ".r" -type "double3" -21.701470641865473 -48.62622005806297 0 ;
	setAttr ".rp" -type "double3" 0 5.6843418860808016e-016 0 ;
	setAttr ".rpt" -type "double3" 4.4296623606418521e-016 3.8510487275473107e-016 3.0370410461113168e-017 ;
createNode camera -s -n "perspShape" -p "persp";
	setAttr -k off ".v" no;
	setAttr ".fl" 34.999999999999979;
	setAttr ".ncp" 0.001;
	setAttr ".fcp" 100;
	setAttr ".coi" 10.619956478907492;
	setAttr ".imn" -type "string" "persp";
	setAttr ".den" -type "string" "persp_depth";
	setAttr ".man" -type "string" "persp_mask";
	setAttr ".tp" -type "double3" -47.965157434133111 278.47583264452146 -10.041096369026935 ;
	setAttr ".hc" -type "string" "viewSet -p %camera";
createNode transform -s -n "top";
	setAttr ".v" no;
	setAttr ".t" -type "double3" 0 100.10000000000001 0 ;
	setAttr ".r" -type "double3" -89.999999999999986 0 0 ;
createNode camera -s -n "topShape" -p "top";
	setAttr -k off ".v" no;
	setAttr ".rnd" no;
	setAttr ".ncp" 0.001;
	setAttr ".fcp" 100;
	setAttr ".coi" 100.10000000000001;
	setAttr ".ow" 30;
	setAttr ".imn" -type "string" "top";
	setAttr ".den" -type "string" "top_depth";
	setAttr ".man" -type "string" "top_mask";
	setAttr ".hc" -type "string" "viewSet -t %camera";
	setAttr ".o" yes;
createNode transform -s -n "front";
	setAttr ".v" no;
	setAttr ".t" -type "double3" 0 0 100.10000000000001 ;
createNode camera -s -n "frontShape" -p "front";
	setAttr -k off ".v" no;
	setAttr ".rnd" no;
	setAttr ".ncp" 0.001;
	setAttr ".fcp" 100;
	setAttr ".coi" 100.10000000000001;
	setAttr ".ow" 30;
	setAttr ".imn" -type "string" "front";
	setAttr ".den" -type "string" "front_depth";
	setAttr ".man" -type "string" "front_mask";
	setAttr ".hc" -type "string" "viewSet -f %camera";
	setAttr ".o" yes;
createNode transform -s -n "side";
	setAttr ".v" no;
	setAttr ".t" -type "double3" 100.10000000000001 0 0 ;
	setAttr ".r" -type "double3" 0 89.999999999999986 0 ;
createNode camera -s -n "sideShape" -p "side";
	setAttr -k off ".v" no;
	setAttr ".rnd" no;
	setAttr ".ncp" 0.001;
	setAttr ".fcp" 100;
	setAttr ".coi" 100.10000000000001;
	setAttr ".ow" 30;
	setAttr ".imn" -type "string" "side";
	setAttr ".den" -type "string" "side_depth";
	setAttr ".man" -type "string" "side_mask";
	setAttr ".hc" -type "string" "viewSet -s %camera";
	setAttr ".o" yes;
createNode transform -n "CH_Tokei_";
createNode transform -n "A" -p "CH_Tokei_";
	setAttr ".t" -type "double3" 0 -2.7354196797646662 0.041261587142944339 ;
	setAttr ".rp" -type "double3" 0 2.7354196797646662 -0.041261587142944339 ;
	setAttr ".sp" -type "double3" 0 2.7354196797646662 -0.041261587142944339 ;
createNode transform -n "pCube1" -p "A";
	setAttr ".rp" -type "double3" 0 2.71649281985944 -0.070568743540907294 ;
	setAttr ".sp" -type "double3" 0 2.71649281985944 -0.070568743540907294 ;
createNode mesh -n "pCubeShape1" -p "pCube1";
	setAttr -k off ".v";
	setAttr ".vir" yes;
	setAttr ".vif" yes;
	setAttr ".pv" -type "double2" 0.61157625913619995 0.23112067580223083 ;
	setAttr ".uvst[0].uvsn" -type "string" "map1";
	setAttr -s 158 ".uvst[0].uvsp[0:157]" -type "float2" 0.39178503 0.014609774
		 0.3914431 1 0.3914431 0 0.39257878 0.99638867 0.39231932 0.02913845 0.59211379 1
		 0.59211379 0 0.59267664 0.014609778 0.59304464 0.029138461 0.59306866 0.99874318
		 0.35108384 0.23018925 0.375 0.27269304 0.35230696 0.25 0.3772566 0.26808351 0.34963322
		 0.21055318 0.375 0.47730696 0.14769304 0.25 0.14718686 0.23039086 0.1469316 0.21091154
		 0.37766156 0.48085275 0.39973378 0.18609087 0.398886 0.17238553 0.39821133 0.15863124
		 0.40068224 0.19978243 0.5956043 0.17238559 0.59563118 0.18609095 0.59555644 0.19978251
		 0.59540123 0.15863129 0.64769304 0.25 0.625 0.27269304 0.64743555 0.23018925 0.6474188
		 0.21055318 0.62227249 0.26808393 0.85267246 0.23039086 0.85230696 0.25 0.625 0.47730696
		 0.62231237 0.48086062 0.85278624 0.21091154 0.40333673 0.56436461 0.40352321 0.55302906
		 0.40380758 0.54169893 0.40331888 0.57573026 0.59646666 0.55311775 0.59665239 0.56447828
		 0.59666938 0.57586902 0.59618306 0.54176271 0.33339089 0 0.375 0.95839089 0.33513969
		 0.019171119 0.33665088 0.03823166 0.37593168 0.9594053 0.14561045 0.018423716 0.14580455
		 0 0.375 0.77080458 0.37758967 0.76918513 0.14564784 0.036915526 0.40351275 0.70427537
		 0.40332794 0.69312602 0.40331176 0.68192494 0.40379545 0.71540701 0.5966503 0.69354904
		 0.59646422 0.70473212 0.59618026 0.7158978 0.59666771 0.6823144 0.64742756 0.019171119
		 0.625 0.97730696 0.64769304 0 0.62208843 0.97569585 0.64740402 0.03823166 0.625 0.77269304
		 0.85230696 0 0.8526724 0.018423716 0.85278612 0.036915526 0.62230229 0.77122867 0.375
		 0.97919548 0.35419545 0 0.35543376 0.018938495 0.35660863 0.036809176 0.3766396 0.9779017
		 0.37188289 0.22410271 0.375 0.25 0.37930453 0.24418344 0.36924967 0.20107277 0.375
		 0 0.375 1 0.37524009 0.016969303 0.37561232 0.032930993 0.38000613 0.99289209 0.38549984
		 0.18740873 0.38684434 0.20031476 0.38831815 0.21243261 0.38425255 0.17435117 0.60855693
		 1 0.60855693 0 0.60901558 0.016969306 0.60940892 0.032931 0.60757279 0.99774188 0.60993963
		 0.18740879 0.60943985 0.20031483 0.60872775 0.2124327 0.61032134 0.17435122 0.625
		 0 0.625 1 0.62606001 0.018938497 0.62688214 0.036809176 0.61937809 0.99308103 0.62618291
		 0.22410272 0.625 0.25 0.61974835 0.24418357 0.62709123 0.20107278 0.375 0.5 0.125
		 0.25 0.375 0.52113461 0.125 0.22886537 0.375 0.54195035 0.125 0.20804968 0.38015845
		 0.50376981 0.375 0.75 0.125 0 0.375 0.75425684 0.12925686 0 0.38013586 0.7501297
		 0.125 0.020815695 0.375 0.72918433 0.39038274 0.54196656 0.38999504 0.55337095 0.38970736
		 0.56499732 0.3909997 0.53122628 0.38998723 0.70701826 0.39037219 0.71660036 0.3909854
		 0.72565871 0.38970184 0.696769 0.60960937 0.54202813 0.60999739 0.55344552 0.61028516
		 0.56508559 0.60899168 0.53127563 0.6099959 0.70739359 0.6096074 0.71707302 0.60898912
		 0.72624755 0.61028403 0.69706672 0.625 0.5 0.875 0.25 0.625 0.52113461 0.875 0.22886537
		 0.875 0.20804968 0.625 0.54195035 0.6198324 0.50378567 0.625 0.75 0.875 0 0.625 0.75464326
		 0.87035674 0 0.61982906 0.75100142 0.625 0.72918433 0.875 0.020815695 0.38639039
		 0.2311205 0.61157626 0.23112068 0.61182988 0.51442116 0.38815683 0.51438695;
	setAttr ".cuvs" -type "string" "map1";
	setAttr ".dcc" -type "string" "Ambient+Diffuse";
	setAttr ".covm[0]"  0 1 1;
	setAttr ".cdvm[0]"  0 1 1;
	setAttr -s 132 ".pt[0:131]" -type "float3"  -0.086431608 -0.13375539 
		0.083583593 -0.086127557 -0.13662827 0.0812741 -0.085712217 -0.13879608 0.078119271 
		-0.086542904 -0.12838015 0.084428929 0.086127557 -0.13662827 0.0812741 0.086431608 
		-0.13375539 0.083583593 0.086542904 -0.12838015 0.084428929 0.085712217 -0.13879608 
		0.078119271 -0.11309659 -0.10176817 0.056918606 -0.11078711 -0.098895289 0.056614555 
		-0.10763226 -0.096727476 0.056199212 -0.11394193 -0.10714341 0.057029895 -0.11078711 
		-0.098895289 -0.070435174 -0.11309659 -0.10176817 -0.070739225 -0.11394193 -0.10714341 
		-0.070850514 -0.10763226 -0.096727476 -0.070019834 -0.086127557 -0.098895289 0.0812741 
		-0.086431608 -0.10176817 0.083583593 -0.086542904 -0.10714341 0.084428929 -0.085712217 
		-0.096727476 0.078119271 0.086431608 -0.10176817 0.083583593 0.086127557 -0.098895289 
		0.0812741 0.085712217 -0.096727476 0.078119271 0.086542904 -0.10714341 0.084428929 
		0.11078711 -0.098895289 0.056614555 0.11309659 -0.10176817 0.056918606 0.11394193 
		-0.10714341 0.057029895 0.10763226 -0.096727476 0.056199212 0.11309659 -0.10176817 
		-0.070739225 0.11078711 -0.098895289 -0.070435174 0.10763226 -0.096727476 -0.070019834 
		0.11394193 -0.10714341 -0.070850514 -0.086431608 -0.10176817 -0.097404212 -0.086127557 
		-0.098895289 -0.095094718 -0.085712217 -0.096727476 -0.091939889 -0.086542904 -0.10714341 
		-0.098249547 0.086127557 -0.098895289 -0.095094718 0.086431608 -0.10176817 -0.097404212 
		0.086542904 -0.10714341 -0.098249547 0.085712217 -0.096727476 -0.091939889 -0.11078711 
		-0.13662827 0.056614555 -0.11309659 -0.13375539 0.056918606 -0.11394193 -0.12838015 
		0.057029895 -0.10763226 -0.13879608 0.056199212 -0.11309659 -0.13375539 -0.070739225 
		-0.11078711 -0.13662827 -0.070435174 -0.10763226 -0.13879608 -0.070019834 -0.11394193 
		-0.12838015 -0.070850514 -0.086127557 -0.13662827 -0.095094718 -0.086431608 -0.13375539 
		-0.097404212 -0.086542904 -0.12838015 -0.098249547 -0.085712217 -0.13879608 -0.091939889 
		0.086431608 -0.13375539 -0.097404212 0.086127557 -0.13662827 -0.095094718 0.085712217 
		-0.13879608 -0.091939889 0.086542904 -0.12838015 -0.098249547 0.11309659 -0.13375539 
		0.056918606 0.11078711 -0.13662827 0.056614555 0.10763226 -0.13879608 0.056199212 
		0.11394193 -0.12838015 0.057029895 0.11078711 -0.13662827 -0.070435174 0.11309659 
		-0.13375539 -0.070739225 0.11394193 -0.12838015 -0.070850514 0.10763226 -0.13879608 
		-0.070019834 -0.10744261 -0.13662827 0.069096349 -0.10951325 -0.13375539 0.070291832 
		-0.11027115 -0.12838015 0.070729412 -0.10461406 -0.13879608 0.067463294 -0.10951325 
		-0.10176817 0.070291832 -0.10744261 -0.098895289 0.069096349 -0.10461406 -0.096727476 
		0.067463294 -0.11027115 -0.10714341 0.070729412 -0.098609351 -0.13662827 0.077929609 
		-0.099804834 -0.13375539 0.080000237 -0.10024241 -0.12838015 0.080758154 -0.096976288 
		-0.13879608 0.075101063 -0.099804834 -0.10176817 0.080000237 -0.098609351 -0.098895289 
		0.077929609 -0.096976288 -0.096727476 0.075101063 -0.10024241 -0.10714341 0.080758154 
		0.098609351 -0.13662827 0.077929609 0.099804834 -0.13375539 0.080000237 0.10024241 
		-0.12838015 0.080758154 0.096976288 -0.13879608 0.075101063 0.099804834 -0.10176817 
		0.080000237 0.098609351 -0.098895289 0.077929609 0.096976288 -0.096727476 0.075101063 
		0.10024241 -0.10714341 0.080758154 0.10744261 -0.13662827 0.069096349 0.10951325 
		-0.13375539 0.070291832 0.11027115 -0.12838015 0.070729412 0.10461406 -0.13879608 
		0.067463294 0.10951325 -0.10176817 0.070291832 0.10744261 -0.098895289 0.069096349 
		0.10461406 -0.096727476 0.067463294 0.11027115 -0.10714341 0.070729412 -0.10744261 
		-0.098895289 -0.082916975 -0.10951325 -0.10176817 -0.08411245 -0.11027115 -0.10714341 
		-0.084550031 -0.10461406 -0.096727476 -0.081283912 -0.10951325 -0.13375539 -0.08411245 
		-0.10744261 -0.13662827 -0.082916975 -0.10461406 -0.13879608 -0.081283912 -0.11027115 
		-0.12838015 -0.084550031 -0.098609351 -0.098895289 -0.091750234 -0.099804834 -0.10176817 
		-0.093820855 -0.10024241 -0.10714341 -0.094578773 -0.096976288 -0.096727476 -0.088921681 
		-0.099804834 -0.13375539 -0.093820855 -0.098609351 -0.13662827 -0.091750234 -0.096976288 
		-0.13879608 -0.088921681 -0.10024241 -0.12838015 -0.094578773 0.098609351 -0.098895289 
		-0.091750234 0.099804834 -0.10176817 -0.093820855 0.10024241 -0.10714341 -0.094578773 
		0.096976288 -0.096727476 -0.088921681 0.099804834 -0.13375539 -0.093820855 0.098609351 
		-0.13662827 -0.091750234 0.096976288 -0.13879608 -0.088921681 0.10024241 -0.12838015 
		-0.094578773 0.10744261 -0.098895289 -0.082916975 0.10951325 -0.10176817 -0.08411245 
		0.11027115 -0.10714341 -0.084550031 0.10461406 -0.096727476 -0.081283912 0.10951325 
		-0.13375539 -0.08411245 0.10744261 -0.13662827 -0.082916975 0.10461406 -0.13879608 
		-0.081283912 0.11027115 -0.12838015 -0.084550031 -0.08921621 -0.096727476 0.061882015 
		0.08921621 -0.096727476 0.061882015 0.089216202 -0.096727476 -0.075702637 -0.08921621 
		-0.096727476 -0.075702637;
	setAttr -s 132 ".vt[0:131]"  -0.28013167 2.78241801 0.22963944 -0.27914622 2.77310658 0.22215419
		 -0.27780005 2.76608062 0.21192913 -0.28049237 2.7998395 0.23237923 0.27914622 2.77310658 0.22215419
		 0.28013167 2.78241801 0.22963944 0.28049237 2.7998395 0.23237923 0.27780005 2.76608062 0.21192913
		 -0.36655498 2.88609099 0.1432161 -0.35906973 2.89540219 0.14223066 -0.34884468 2.90242839 0.14088449
		 -0.36929476 2.86866951 0.1435768 -0.35906973 2.89540219 -0.26954755 -0.36655498 2.88609099 -0.270533
		 -0.36929476 2.86866951 -0.27089369 -0.34884468 2.90242839 -0.26820138 -0.27914622 2.89540219 0.22215419
		 -0.28013167 2.88609099 0.22963944 -0.28049237 2.86866951 0.23237923 -0.27780005 2.90242839 0.21192913
		 0.28013167 2.88609099 0.22963944 0.27914622 2.89540219 0.22215419 0.27780005 2.90242839 0.21192913
		 0.28049237 2.86866951 0.23237923 0.35906973 2.89540219 0.14223066 0.36655498 2.88609099 0.1432161
		 0.36929476 2.86866951 0.1435768 0.34884468 2.90242839 0.14088449 0.36655498 2.88609099 -0.270533
		 0.35906973 2.89540219 -0.26954755 0.34884468 2.90242839 -0.26820138 0.36929476 2.86866951 -0.27089369
		 -0.28013167 2.88609099 -0.35695633 -0.27914622 2.89540219 -0.34947109 -0.27780005 2.90242839 -0.33924603
		 -0.28049237 2.86866951 -0.35969612 0.27914622 2.89540219 -0.34947109 0.28013167 2.88609099 -0.35695633
		 0.28049237 2.86866951 -0.35969612 0.27780005 2.90242839 -0.33924603 -0.35906973 2.77310658 0.14223066
		 -0.36655498 2.78241801 0.1432161 -0.36929476 2.7998395 0.1435768 -0.34884468 2.76608062 0.14088449
		 -0.36655498 2.78241801 -0.270533 -0.35906973 2.77310658 -0.26954755 -0.34884468 2.76608062 -0.26820138
		 -0.36929476 2.7998395 -0.27089369 -0.27914622 2.77310658 -0.34947109 -0.28013167 2.78241801 -0.35695633
		 -0.28049237 2.7998395 -0.35969612 -0.27780005 2.76608062 -0.33924603 0.28013167 2.78241801 -0.35695633
		 0.27914622 2.77310658 -0.34947109 0.27780005 2.76608062 -0.33924603 0.28049237 2.7998395 -0.35969612
		 0.36655498 2.78241801 0.1432161 0.35906973 2.77310658 0.14223066 0.34884468 2.76608062 0.14088449
		 0.36929476 2.7998395 0.1435768 0.35906973 2.77310658 -0.26954755 0.36655498 2.78241801 -0.270533
		 0.36929476 2.7998395 -0.27089369 0.34884468 2.76608062 -0.26820138 -0.34822997 2.77310658 0.18268515
		 -0.35494107 2.78241801 0.1865598 -0.3573975 2.7998395 0.18797801 -0.33906242 2.76608062 0.17739227
		 -0.35494107 2.88609099 0.1865598 -0.34822997 2.89540219 0.18268515 -0.33906242 2.90242839 0.17739227
		 -0.3573975 2.86866951 0.18797801 -0.3196007 2.77310658 0.21131442 -0.32347533 2.78241801 0.21802551
		 -0.32489356 2.7998395 0.22048195 -0.31430781 2.76608062 0.20214689 -0.32347533 2.88609099 0.21802551
		 -0.3196007 2.89540219 0.21131442 -0.31430781 2.90242839 0.20214689 -0.32489356 2.86866951 0.22048195
		 0.3196007 2.77310658 0.21131442 0.32347533 2.78241801 0.21802551 0.32489356 2.7998395 0.22048195
		 0.31430781 2.76608062 0.20214689 0.32347533 2.88609099 0.21802551 0.3196007 2.89540219 0.21131442
		 0.31430781 2.90242839 0.20214689 0.32489356 2.86866951 0.22048195 0.34822997 2.77310658 0.18268515
		 0.35494107 2.78241801 0.1865598 0.3573975 2.7998395 0.18797801 0.33906242 2.76608062 0.17739227
		 0.35494107 2.88609099 0.1865598 0.34822997 2.89540219 0.18268515 0.33906242 2.90242839 0.17739227
		 0.3573975 2.86866951 0.18797801 -0.34822997 2.89540219 -0.31000203 -0.35494107 2.88609099 -0.31387669
		 -0.3573975 2.86866951 -0.31529492 -0.33906242 2.90242839 -0.30470917 -0.35494107 2.78241801 -0.31387669
		 -0.34822997 2.77310658 -0.31000203 -0.33906242 2.76608062 -0.30470917 -0.3573975 2.7998395 -0.31529492
		 -0.3196007 2.89540219 -0.33863133 -0.32347533 2.88609099 -0.3453424 -0.32489356 2.86866951 -0.34779885
		 -0.31430781 2.90242839 -0.32946378 -0.32347533 2.78241801 -0.3453424 -0.3196007 2.77310658 -0.33863133
		 -0.31430781 2.76608062 -0.32946378 -0.32489356 2.7998395 -0.34779885 0.3196007 2.89540219 -0.33863133
		 0.32347533 2.88609099 -0.3453424 0.32489356 2.86866951 -0.34779885 0.31430781 2.90242839 -0.32946378
		 0.32347533 2.78241801 -0.3453424 0.3196007 2.77310658 -0.33863133 0.31430781 2.76608062 -0.32946378
		 0.32489356 2.7998395 -0.34779885 0.34822997 2.89540219 -0.31000203 0.35494107 2.88609099 -0.31387669
		 0.3573975 2.86866951 -0.31529492 0.33906242 2.90242839 -0.30470917 0.35494107 2.78241801 -0.31387669
		 0.34822997 2.77310658 -0.31000203 0.33906242 2.76608062 -0.30470917 0.3573975 2.7998395 -0.31529492
		 -0.28915679 2.90242839 0.15930291 0.28915679 2.90242839 0.15930291 0.28915676 2.90242839 -0.28661978
		 -0.28915679 2.90242839 -0.28661978;
	setAttr -s 260 ".ed";
	setAttr ".ed[0:165]"  2 1 1 1 72 1 72 75 1 75 2 1 1 0 1 0 73 0 73 72 1 0 3 1
		 3 74 1 74 73 1 0 5 0 5 6 1 6 3 1 1 4 1 4 5 1 2 7 1 7 4 1 5 81 0 81 82 1 82 6 1 4 80 1
		 80 81 1 7 83 1 83 80 1 10 9 1 9 69 1 69 70 1 70 10 1 9 8 1 8 68 0 68 69 1 8 11 1
		 11 71 1 71 68 1 8 13 0 13 14 1 14 11 1 9 12 1 12 13 1 10 15 1 15 12 1 13 97 0 97 98 1
		 98 14 1 12 96 1 96 97 1 15 99 1 99 96 1 18 17 1 17 76 0 76 79 1 79 18 1 17 16 1 16 77 1
		 77 76 1 16 19 1 19 78 1 78 77 1 16 21 1 21 22 1 22 19 1 17 20 0 20 21 1 18 23 1 23 20 1
		 21 85 1 85 86 1 86 22 1 20 84 0 84 85 1 23 87 1 87 84 1 26 25 1 25 92 0 92 95 1 95 26 1
		 25 24 1 24 93 1 93 92 1 24 27 1 27 94 1 94 93 1 24 29 1 29 30 1 30 27 1 25 28 0 28 29 1
		 26 31 1 31 28 1 29 120 1 120 123 1 123 30 1 28 121 0 121 120 1 31 122 1 122 121 1
		 34 33 1 33 104 1 104 107 1 107 34 1 33 32 1 32 105 0 105 104 1 32 35 1 35 106 1 106 105 1
		 32 37 0 37 38 1 38 35 1 33 36 1 36 37 1 34 39 1 39 36 1 37 113 0 113 114 1 114 38 1
		 36 112 1 112 113 1 39 115 1 115 112 1 42 41 1 41 65 0 65 66 1 66 42 1 41 40 1 40 64 1
		 64 65 1 40 43 1 43 67 1 67 64 1 40 45 1 45 46 1 46 43 1 41 44 0 44 45 1 42 47 1 47 44 1
		 45 101 1 101 102 1 102 46 1 44 100 0 100 101 1 47 103 1 103 100 1 50 49 1 49 108 0
		 108 111 1 111 50 1 49 48 1 48 109 1 109 108 1 48 51 1 51 110 1 110 109 1 48 53 1
		 53 54 1 54 51 1 49 52 0 52 53 1 50 55 1 55 52 1 53 117 1 117 118 1 118 54 1 52 116 0
		 116 117 1;
	setAttr ".ed[166:259]" 55 119 1 119 116 1 58 57 1 57 88 1 88 91 1 91 58 1 57 56 1
		 56 89 0 89 88 1 56 59 1 59 90 1 90 89 1 56 61 0 61 62 1 62 59 1 57 60 1 60 61 1 58 63 1
		 63 60 1 61 124 0 124 127 1 127 62 1 60 125 1 125 124 1 63 126 1 126 125 1 65 73 0
		 74 66 1 64 72 1 67 75 1 69 77 1 78 70 1 68 76 0 71 79 1 81 89 0 90 82 1 80 88 1 83 91 1
		 85 93 1 94 86 1 84 92 0 87 95 1 97 105 0 106 98 1 96 104 1 99 107 1 101 109 1 110 102 1
		 100 108 0 103 111 1 113 121 0 122 114 1 112 120 1 115 123 1 117 125 1 126 118 1 116 124 0
		 119 127 1 18 3 1 6 23 1 50 35 1 38 55 1 26 59 1 62 31 1 14 47 1 42 11 1 66 71 1 74 79 1
		 82 87 1 90 95 1 98 103 1 106 111 1 114 119 1 122 127 1 70 128 1 10 128 1 78 128 1
		 19 128 1 22 129 1 129 128 1 86 129 1 94 129 1 27 129 1 30 130 1 130 129 1 123 130 1
		 115 130 1 39 130 1 34 131 1 131 130 1 107 131 1 99 131 1 15 131 1 128 131 1;
	setAttr -s 130 -ch 520 ".fc[0:129]" -type "polyFaces" 
		f 4 0 1 2 3
		mu 0 4 3 1 84 87
		f 4 4 5 6 -2
		mu 0 4 2 0 85 83
		f 4 7 8 9 -6
		mu 0 4 0 4 86 85
		f 4 -8 10 11 12
		mu 0 4 4 0 7 8
		f 4 -5 13 14 -11
		mu 0 4 0 2 6 7
		f 4 -1 15 16 -14
		mu 0 4 1 3 9 5
		f 4 -12 17 18 19
		mu 0 4 8 7 94 95
		f 4 -15 20 21 -18
		mu 0 4 7 6 93 94
		f 4 -17 22 23 -21
		mu 0 4 5 9 96 92
		f 4 24 25 26 27
		mu 0 4 13 11 80 81
		f 4 28 29 30 -26
		mu 0 4 12 10 79 80
		f 4 31 32 33 -30
		mu 0 4 10 14 82 79
		f 4 -32 34 35 36
		mu 0 4 14 10 17 18
		f 4 -29 37 38 -35
		mu 0 4 10 12 16 17
		f 4 -25 39 40 -38
		mu 0 4 11 13 19 15
		f 4 -36 41 42 43
		mu 0 4 18 17 113 115
		f 4 -39 44 45 -42
		mu 0 4 17 16 111 113
		f 4 -41 46 47 -45
		mu 0 4 15 19 116 110
		f 4 48 49 50 51
		mu 0 4 22 21 88 91
		f 4 52 53 54 -50
		mu 0 4 21 20 89 88
		f 4 55 56 57 -54
		mu 0 4 20 23 90 89
		f 4 -56 58 59 60
		mu 0 4 23 20 25 26
		f 4 -53 61 62 -59
		mu 0 4 20 21 24 25
		f 4 -49 63 64 -62
		mu 0 4 21 22 27 24
		f 4 -60 65 66 67
		mu 0 4 26 25 98 99
		f 4 -63 68 69 -66
		mu 0 4 25 24 97 98
		f 4 -65 70 71 -69
		mu 0 4 24 27 100 97
		f 4 72 73 74 75
		mu 0 4 31 30 106 109
		f 4 76 77 78 -74
		mu 0 4 30 28 107 106
		f 4 79 80 81 -78
		mu 0 4 29 32 108 107
		f 4 -80 82 83 84
		mu 0 4 32 29 35 36
		f 4 -77 85 86 -83
		mu 0 4 28 30 33 34
		f 4 -73 87 88 -86
		mu 0 4 30 31 37 33
		f 4 -84 89 90 91
		mu 0 4 36 35 140 146
		f 4 -87 92 93 -90
		mu 0 4 34 33 143 141
		f 4 -89 94 95 -93
		mu 0 4 33 37 144 143
		f 4 96 97 98 99
		mu 0 4 40 39 124 127
		f 4 100 101 102 -98
		mu 0 4 39 38 125 124
		f 4 103 104 105 -102
		mu 0 4 38 41 126 125
		f 4 -104 106 107 108
		mu 0 4 41 38 43 44
		f 4 -101 109 110 -107
		mu 0 4 38 39 42 43
		f 4 -97 111 112 -110
		mu 0 4 39 40 45 42
		f 4 -108 113 114 115
		mu 0 4 44 43 133 134
		f 4 -111 116 117 -114
		mu 0 4 43 42 132 133
		f 4 -113 118 119 -117
		mu 0 4 42 45 135 132
		f 4 120 121 122 123
		mu 0 4 49 48 76 77
		f 4 124 125 126 -122
		mu 0 4 48 46 75 76
		f 4 127 128 129 -126
		mu 0 4 47 50 78 74
		f 4 -128 130 131 132
		mu 0 4 50 47 53 54
		f 4 -125 133 134 -131
		mu 0 4 46 48 51 52
		f 4 -121 135 136 -134
		mu 0 4 48 49 55 51
		f 4 -132 137 138 139
		mu 0 4 54 53 119 121
		f 4 -135 140 141 -138
		mu 0 4 52 51 118 120
		f 4 -137 142 143 -141
		mu 0 4 51 55 122 118
		f 4 144 145 146 147
		mu 0 4 58 57 128 131
		f 4 148 149 150 -146
		mu 0 4 57 56 129 128
		f 4 151 152 153 -150
		mu 0 4 56 59 130 129
		f 4 -152 154 155 156
		mu 0 4 59 56 61 62
		f 4 -149 157 158 -155
		mu 0 4 56 57 60 61
		f 4 -145 159 160 -158
		mu 0 4 57 58 63 60
		f 4 -156 161 162 163
		mu 0 4 62 61 137 138
		f 4 -159 164 165 -162
		mu 0 4 61 60 136 137
		f 4 -161 166 167 -165
		mu 0 4 60 63 139 136
		f 4 168 169 170 171
		mu 0 4 67 65 102 105
		f 4 172 173 174 -170
		mu 0 4 66 64 103 101
		f 4 175 176 177 -174
		mu 0 4 64 68 104 103
		f 4 -176 178 179 180
		mu 0 4 68 64 71 72
		f 4 -173 181 182 -179
		mu 0 4 64 66 70 71
		f 4 -169 183 184 -182
		mu 0 4 65 67 73 69
		f 4 -180 185 186 187
		mu 0 4 72 71 148 153
		f 4 -183 188 189 -186
		mu 0 4 71 70 150 148
		f 4 -185 190 191 -189
		mu 0 4 69 73 151 149
		f 4 -123 192 -10 193
		mu 0 4 77 76 85 86
		f 4 -127 194 -7 -193
		mu 0 4 76 75 83 85
		f 4 -130 195 -3 -195
		mu 0 4 74 78 87 84
		f 4 -27 196 -58 197
		mu 0 4 81 80 89 90
		f 4 -31 198 -55 -197
		mu 0 4 80 79 88 89
		f 4 -34 199 -51 -199
		mu 0 4 79 82 91 88
		f 4 -19 200 -178 201
		mu 0 4 95 94 103 104
		f 4 -22 202 -175 -201
		mu 0 4 94 93 101 103
		f 4 -24 203 -171 -203
		mu 0 4 92 96 105 102
		f 4 -67 204 -82 205
		mu 0 4 99 98 107 108
		f 4 -70 206 -79 -205
		mu 0 4 98 97 106 107
		f 4 -72 207 -75 -207
		mu 0 4 97 100 109 106
		f 4 -43 208 -106 209
		mu 0 4 114 112 125 126
		f 4 -46 210 -103 -209
		mu 0 4 112 110 124 125
		f 4 -48 211 -99 -211
		mu 0 4 110 116 127 124
		f 4 -139 212 -154 213
		mu 0 4 121 119 129 130
		f 4 -142 214 -151 -213
		mu 0 4 119 117 128 129
		f 4 -144 215 -147 -215
		mu 0 4 117 123 131 128
		f 4 -115 216 -96 217
		mu 0 4 134 133 142 145
		f 4 -118 218 -94 -217
		mu 0 4 133 132 140 142
		f 4 -120 219 -91 -219
		mu 0 4 132 135 146 140
		f 4 -163 220 -192 221
		mu 0 4 138 137 149 151
		f 4 -166 222 -190 -221
		mu 0 4 137 136 147 149
		f 4 -168 223 -187 -223
		mu 0 4 136 139 152 147
		f 4 224 -13 225 -64
		mu 0 4 22 4 8 27
		f 4 226 -109 227 -160
		mu 0 4 58 41 44 63
		f 4 228 -181 229 -88
		mu 0 4 31 68 72 37
		f 4 230 -136 231 -37
		mu 0 4 18 55 49 14
		f 4 -124 232 -33 -232
		mu 0 4 49 77 82 14
		f 4 -194 233 -200 -233
		mu 0 4 77 86 91 82
		f 4 -9 -225 -52 -234
		mu 0 4 86 4 22 91
		f 4 -20 234 -71 -226
		mu 0 4 8 95 100 27
		f 4 -202 235 -208 -235
		mu 0 4 95 104 109 100
		f 4 -177 -229 -76 -236
		mu 0 4 104 68 31 109
		f 4 -44 236 -143 -231
		mu 0 4 18 115 122 55
		f 4 -210 237 -216 -237
		mu 0 4 114 126 131 123
		f 4 -105 -227 -148 -238
		mu 0 4 126 41 58 131
		f 4 -116 238 -167 -228
		mu 0 4 44 134 139 63
		f 4 -218 239 -224 -239
		mu 0 4 134 145 152 139
		f 4 -95 -230 -188 -240
		mu 0 4 144 37 72 153
		f 4 -246 -251 -256 -260
		mu 0 4 154 155 156 157
		f 16 -184 -172 -204 -23 -16 -4 -196 -129 -133 -140 -214 -153 -157 -164 -222 -191
		mu 0 16 73 67 105 96 9 3 87 78 50 54 121 130 59 62 138 151
		f 3 -28 240 -242
		mu 0 3 13 81 154
		f 3 -198 242 -241
		mu 0 3 81 90 154
		f 3 -57 243 -243
		mu 0 3 90 23 154
		f 4 -61 244 245 -244
		mu 0 4 23 26 155 154
		f 3 -68 246 -245
		mu 0 3 26 99 155
		f 3 -206 247 -247
		mu 0 3 99 108 155
		f 3 -81 248 -248
		mu 0 3 108 32 155
		f 4 -85 249 250 -249
		mu 0 4 32 36 156 155
		f 3 -92 251 -250
		mu 0 3 36 146 156
		f 3 -220 252 -252
		mu 0 3 146 135 156
		f 3 -119 253 -253
		mu 0 3 135 45 156
		f 4 -112 254 255 -254
		mu 0 4 45 40 157 156
		f 3 -100 256 -255
		mu 0 3 40 127 157
		f 3 -212 257 -257
		mu 0 3 127 116 157
		f 3 -47 258 -258
		mu 0 3 116 19 157
		f 4 -40 241 259 -259
		mu 0 4 19 13 154 157;
	setAttr ".cd" -type "dataPolyComponent" Index_Data Edge 0 ;
	setAttr ".cvd" -type "dataPolyComponent" Index_Data Vertex 0 ;
	setAttr ".hfd" -type "dataPolyComponent" Index_Data Face 0 ;
createNode transform -n "pCylinder1" -p "A";
	setAttr ".rp" -type "double3" 0.23709558458513699 2.7178487556972799 0.3143499231520635 ;
	setAttr ".sp" -type "double3" 0.23709558458513699 2.7178487556972799 0.3143499231520635 ;
createNode mesh -n "pCylinderShape1" -p "pCylinder1";
	setAttr -k off ".v";
	setAttr ".vir" yes;
	setAttr ".vif" yes;
	setAttr ".pv" -type "double2" 0.5 0.5 ;
	setAttr ".uvst[0].uvsn" -type "string" "map1";
	setAttr -s 84 ".uvst[0].uvsp[0:83]" -type "float2" 0.62640893 0.93559146
		 0.62499988 0.68843985 0.375 0.68843985 0.59125209 0.91004795 0.62499988 0.64668661
		 0.40000001 0.68843985 0.54828393 0.9923526 0.53485513 0.95102358 0.42500001 0.68843985
		 0.4517161 0.9923526 0.46514487 0.95102358 0.45000002 0.68843985 0.37359107 0.93559146
		 0.40874794 0.91004795 0.47500002 0.68843985 0.34375 0.84375 0.38720626 0.84374976
		 0.5 0.68843985 0.37359107 0.75190854 0.40874791 0.77745229 0.52499998 0.68843985
		 0.45171607 0.6951474 0.46514484 0.73647654 0.54999995 0.68843985 0.54828387 0.6951474
		 0.53485513 0.73647654 0.57499993 0.68843985 0.62640893 0.75190854 0.59125209 0.77745229
		 0.65625 0.84375 0.5999999 0.68843985 0.61279368 0.84374982 0.37500033 0.64668643
		 0.39999998 0.64645267 0.42499998 0.64630479 0.4499999 0.64621526 0.47500005 0.64616746
		 0.5 0.64615244 0.52499992 0.64616746 0.55000019 0.64621526 0.57500011 0.64630479
		 0.59999996 0.64645261 0.62640893 0.064408526 0.37500024 0.3125 0.62499988 0.3125
		 0.5961383 0.086401097 0.37500024 0.34961572 0.62499988 0.34961572 0.54828387 0.0076473951
		 0.40000001 0.3125 0.53672159 0.043233208 0.39999998 0.34980324 0.45171607 0.00764741
		 0.42499977 0.3125 0.46327826 0.043233246 0.42499995 0.34991065 0.37359107 0.064408556
		 0.4499996 0.3125 0.40386158 0.086401127 0.44999975 0.34997034 0.34375 0.15625001
		 0.47499979 0.3125 0.38116646 0.15625051 0.47500005 0.35000014 0.37359107 0.24809146
		 0.49999958 0.3125 0.40386155 0.22609867 0.49999997 0.35000914 0.4517161 0.3048526
		 0.52499962 0.3125 0.46327814 0.26926622 0.52499974 0.35000008 0.54828393 0.3048526
		 0.54999995 0.3125 0.53672171 0.26926625 0.54999995 0.34997046 0.62640893 0.24809144
		 0.57499993 0.3125 0.59613842 0.22609867 0.57499969 0.3499108 0.5999999 0.3125 0.65625
		 0.15625 0.61883354 0.15625049 0.59999961 0.34980324;
	setAttr ".cuvs" -type "string" "map1";
	setAttr ".dcc" -type "string" "Ambient+Diffuse";
	setAttr ".covm[0]"  0 1 1;
	setAttr ".cdvm[0]"  0 1 1;
	setAttr -s 60 ".pt[0:59]" -type "float3"  0.069868326 -0.1072966 0.097616978 
		0.068569206 -0.10824064 0.098249547 0.070406437 -0.10690556 0.096089728 0.061238222 
		-0.10102657 0.097616978 0.060742002 -0.10255346 0.098249547 0.061443768 -0.10039402 
		0.096089728 0.050570864 -0.10102657 0.097616971 0.051067062 -0.10255346 0.098249532 
		0.050365314 -0.10039402 0.096089706 0.041940745 -0.1072966 0.097616971 0.043239884 
		-0.10824064 0.098249532 0.041402634 -0.10690556 0.096089706 0.03864434 -0.11744202 
		0.097616971 0.040250167 -0.11744202 0.098249532 0.037979189 -0.11744202 0.096089706 
		0.041940745 -0.12758724 0.097616971 0.043239884 -0.12664312 0.098249532 0.041402634 
		-0.12797818 0.096089706 0.050570864 -0.13385737 0.097616971 0.051067062 -0.13233019 
		0.098249532 0.050365314 -0.13448955 0.096089706 0.061238222 -0.13385737 0.097616978 
		0.060742002 -0.13233019 0.098249547 0.061443768 -0.13448955 0.096089728 0.069868326 
		-0.12758724 0.097616978 0.068569206 -0.12664312 0.098249547 0.070406437 -0.12797818 
		0.096089728 0.073164724 -0.11744202 0.097616978 0.0715589 -0.11744202 0.098249547 
		0.073829904 -0.11744202 0.096089728 0.069949038 -0.10723794 0.084387019 0.068844751 
		-0.10804027 0.083849289 0.070406437 -0.10690556 0.085685164 0.06126906 -0.10093167 
		0.084387019 0.06084726 -0.10222993 0.083849289 0.061443768 -0.10039402 0.085685164 
		0.050540026 -0.10093167 0.084386997 0.050961819 -0.10222993 0.083849281 0.050365314 
		-0.10039402 0.085685156 0.04186004 -0.10723794 0.084386997 0.042964321 -0.10804027 
		0.083849281 0.041402634 -0.10690556 0.085685156 0.038544577 -0.11744202 0.084386997 
		0.039909553 -0.11744202 0.083849281 0.037979189 -0.11744202 0.085685156 0.04186004 
		-0.12764591 0.084386997 0.042964321 -0.12684357 0.083849281 0.041402634 -0.12797818 
		0.085685156 0.050540023 -0.13395199 0.084386997 0.050961815 -0.13265373 0.083849281 
		0.050365314 -0.13448955 0.085685156 0.061269067 -0.13395199 0.084387019 0.060847271 
		-0.13265373 0.083849289 0.061443768 -0.13448955 0.085685164 0.069949038 -0.12764591 
		0.084387019 0.068844751 -0.12684357 0.083849289 0.070406437 -0.12797818 0.085685164 
		0.073264509 -0.11744202 0.084387019 0.071899526 -0.11744202 0.083849289 0.073829904 
		-0.11744202 0.085685164;
	setAttr -s 60 ".vt[0:59]"  0.22644876 2.86817288 0.27512273 0.22223821 2.86511326 0.27717295
		 0.22819282 2.86944032 0.27017277 0.19847792 2.88849449 0.27512273 0.19686963 2.88354588 0.27717295
		 0.1991441 2.89054465 0.27017277 0.16390418 2.88849449 0.2751227 0.16551237 2.88354588 0.27717292
		 0.16323796 2.89054465 0.27017274 0.13593327 2.86817288 0.2751227 0.14014387 2.86511326 0.27717292
		 0.13418922 2.86944032 0.27017274 0.12524936 2.83529091 0.2751227 0.13045397 2.83529091 0.27717292
		 0.12309355 2.83529091 0.27017274 0.13593327 2.80240941 0.2751227 0.14014387 2.80546927 0.27717292
		 0.13418922 2.80114222 0.27017274 0.16390418 2.78208733 0.2751227 0.16551237 2.78703713 0.27717292
		 0.16323796 2.78003836 0.27017274 0.19847792 2.78208733 0.27512273 0.19686963 2.78703713 0.27717295
		 0.1991441 2.78003836 0.27017277 0.22644876 2.80240941 0.27512273 0.22223821 2.80546927 0.27717295
		 0.22819282 2.80114222 0.27017277 0.23713264 2.83529091 0.27512273 0.23192805 2.83529091 0.27717295
		 0.23928854 2.83529091 0.27017277 0.22671033 2.86836314 0.23224339 0.22313127 2.86576271 0.23050056
		 0.22819282 2.86944032 0.23645081 0.19857787 2.88880229 0.23224339 0.19721077 2.88459444 0.23050056
		 0.1991441 2.89054465 0.23645081 0.16380423 2.88880229 0.23224334 0.16517128 2.88459444 0.23050052
		 0.16323796 2.89054465 0.23645079 0.13567169 2.86836314 0.23224334 0.13925076 2.86576271 0.23050052
		 0.13418922 2.86944032 0.23645079 0.12492602 2.83529091 0.23224334 0.12935001 2.83529091 0.23050052
		 0.12309355 2.83529091 0.23645079 0.13567169 2.80221915 0.23224334 0.13925076 2.80481958 0.23050052
		 0.13418922 2.80114222 0.23645079 0.1638042 2.78178072 0.23224334 0.16517127 2.78598857 0.23050052
		 0.16323796 2.78003836 0.23645079 0.19857788 2.78178072 0.23224339 0.1972108 2.78598857 0.23050056
		 0.1991441 2.78003836 0.23645081 0.22671033 2.80221915 0.23224339 0.22313127 2.80481958 0.23050056
		 0.22819282 2.80114222 0.23645081 0.23745605 2.83529091 0.23224339 0.23303205 2.83529091 0.23050056
		 0.23928854 2.83529091 0.23645081;
	setAttr -s 110 ".ed[0:109]"  1 0 1 0 3 1 3 4 1 4 1 1 0 2 1 2 5 1 5 3 1
		 0 27 1 27 29 1 29 2 1 1 28 1 28 27 1 3 6 1 6 7 1 7 4 1 5 8 1 8 6 1 6 9 1 9 10 1 10 7 1
		 8 11 1 11 9 1 9 12 1 12 13 1 13 10 1 11 14 1 14 12 1 12 15 1 15 16 1 16 13 1 14 17 1
		 17 15 1 15 18 1 18 19 1 19 16 1 17 20 1 20 18 1 18 21 1 21 22 1 22 19 1 20 23 1 23 21 1
		 21 24 1 24 25 1 25 22 1 23 26 1 26 24 1 24 27 1 28 25 1 26 29 1 31 30 1 30 57 1 57 58 1
		 58 31 1 30 32 1 32 59 1 59 57 1 30 33 1 33 35 1 35 32 1 31 34 1 34 33 1 33 36 1 36 38 1
		 38 35 1 34 37 1 37 36 1 36 39 1 39 41 1 41 38 1 37 40 1 40 39 1 39 42 1 42 44 1 44 41 1
		 40 43 1 43 42 1 42 45 1 45 47 1 47 44 1 43 46 1 46 45 1 45 48 1 48 50 1 50 47 1 46 49 1
		 49 48 1 48 51 1 51 53 1 53 50 1 49 52 1 52 51 1 51 54 1 54 56 1 56 53 1 52 55 1 55 54 1
		 54 57 1 59 56 1 55 58 1 35 5 1 2 32 1 38 8 1 41 11 1 44 14 1 47 17 1 50 20 1 53 23 1
		 56 26 1 59 29 1;
	setAttr -s 52 -ch 220 ".fc[0:51]" -type "polyFaces" 
		f 4 0 1 2 3
		mu 0 4 3 0 6 7
		f 4 4 5 6 -2
		mu 0 4 2 32 33 5
		f 4 -5 7 8 9
		mu 0 4 4 1 30 41
		f 4 -1 10 11 -8
		mu 0 4 0 3 31 29
		f 4 -3 12 13 14
		mu 0 4 7 6 9 10
		f 4 -7 15 16 -13
		mu 0 4 5 33 34 8
		f 4 -14 17 18 19
		mu 0 4 10 9 12 13
		f 4 -17 20 21 -18
		mu 0 4 8 34 35 11
		f 4 -19 22 23 24
		mu 0 4 13 12 15 16
		f 4 -22 25 26 -23
		mu 0 4 11 35 36 14
		f 4 -24 27 28 29
		mu 0 4 16 15 18 19
		f 4 -27 30 31 -28
		mu 0 4 14 36 37 17
		f 4 -29 32 33 34
		mu 0 4 19 18 21 22
		f 4 -32 35 36 -33
		mu 0 4 17 37 38 20
		f 4 -34 37 38 39
		mu 0 4 22 21 24 25
		f 4 -37 40 41 -38
		mu 0 4 20 38 39 23
		f 4 -39 42 43 44
		mu 0 4 25 24 27 28
		f 4 -42 45 46 -43
		mu 0 4 23 39 40 26
		f 4 -44 47 -12 48
		mu 0 4 28 27 29 31
		f 4 -47 49 -9 -48
		mu 0 4 26 40 41 30
		f 10 -4 -15 -20 -25 -30 -35 -40 -45 -49 -11
		mu 0 10 3 7 10 13 16 19 22 25 28 31
		f 4 50 51 52 53
		mu 0 4 45 42 81 82
		f 4 54 55 56 -52
		mu 0 4 44 47 83 80
		f 4 -55 57 58 59
		mu 0 4 46 43 49 51
		f 4 -51 60 61 -58
		mu 0 4 42 45 50 48
		f 4 -59 62 63 64
		mu 0 4 51 49 53 55
		f 4 -62 65 66 -63
		mu 0 4 48 50 54 52
		f 4 -64 67 68 69
		mu 0 4 55 53 57 59
		f 4 -67 70 71 -68
		mu 0 4 52 54 58 56
		f 4 -69 72 73 74
		mu 0 4 59 57 61 63
		f 4 -72 75 76 -73
		mu 0 4 56 58 62 60
		f 4 -74 77 78 79
		mu 0 4 63 61 65 67
		f 4 -77 80 81 -78
		mu 0 4 60 62 66 64
		f 4 -79 82 83 84
		mu 0 4 67 65 69 71
		f 4 -82 85 86 -83
		mu 0 4 64 66 70 68
		f 4 -84 87 88 89
		mu 0 4 71 69 73 75
		f 4 -87 90 91 -88
		mu 0 4 68 70 74 72
		f 4 -89 92 93 94
		mu 0 4 75 73 77 79
		f 4 -92 95 96 -93
		mu 0 4 72 74 78 76
		f 4 -94 97 -57 98
		mu 0 4 79 77 80 83
		f 4 -97 99 -53 -98
		mu 0 4 76 78 82 81
		f 10 -54 -100 -96 -91 -86 -81 -76 -71 -66 -61
		mu 0 10 45 82 78 74 70 66 62 58 54 50
		f 4 -60 100 -6 101
		mu 0 4 46 51 33 32
		f 4 -65 102 -16 -101
		mu 0 4 51 55 34 33
		f 4 -70 103 -21 -103
		mu 0 4 55 59 35 34
		f 4 -75 104 -26 -104
		mu 0 4 59 63 36 35
		f 4 -80 105 -31 -105
		mu 0 4 63 67 37 36
		f 4 -85 106 -36 -106
		mu 0 4 67 71 38 37
		f 4 -90 107 -41 -107
		mu 0 4 71 75 39 38
		f 4 -95 108 -46 -108
		mu 0 4 75 79 40 39
		f 4 -99 109 -50 -109
		mu 0 4 79 83 41 40
		f 4 -56 -102 -10 -110
		mu 0 4 83 47 4 41;
	setAttr ".cd" -type "dataPolyComponent" Index_Data Edge 0 ;
	setAttr ".cvd" -type "dataPolyComponent" Index_Data Vertex 0 ;
	setAttr ".hfd" -type "dataPolyComponent" Index_Data Face 0 ;
createNode transform -n "pCube2" -p "A";
	setAttr ".rp" -type "double3" -0.11708295251946563 2.7136475206802055 0.31347781512745893 ;
	setAttr ".sp" -type "double3" -0.11708295251946563 2.7136475206802055 0.31347781512745893 ;
createNode mesh -n "pCubeShape2" -p "pCube2";
	setAttr -k off ".v";
	setAttr ".vir" yes;
	setAttr ".vif" yes;
	setAttr ".pv" -type "double2" 0.49999998509883881 0.5 ;
	setAttr ".uvst[0].uvsn" -type "string" "map1";
	setAttr -s 60 ".uvst[0].uvsp[0:59]" -type "float2" 0.69701242 0.375
		 0.30298761 0.375 0.73871529 0.375 0.26128474 0.375 0.12500174 0.25000161 0.30298787
		 0.37500048 0.375 0.5 0.625 0.5 0.73871529 0.375 0.87499815 0.2500017 0.37499958 0.74999791
		 0.26128292 0.37499499 0.125 0 0.875 0 0.69701242 0.375 0.62500042 0.74999768 0.35795918
		 0.24775086 0.3741965 0.20147698 0.34130639 0.29298076 0.64204574 0.24773388 0.65869641
		 0.29296893 0.62581152 0.2014554 0.38784796 1 0.38784796 0 0.3600947 0.79401028 0.38289416
		 0.059282247 0.61215204 1 0.61215204 0 0.61711973 0.059303641 0.63990468 0.79401499
		 0.34524086 0.18335754 0.30626479 0.22056873 0.36765105 0.15183121 0.34539422 0.12913184
		 0.36857894 0.1215904 0.30629414 0.16733302 0.65476125 0.18335743 0.63235468 0.15182896
		 0.69373602 0.22056916 0.65460789 0.12913264 0.69370645 0.16733421 0.63142741 0.12159276
		 0.375 0.25 0.375 0.33514962 0.28985098 0.25000054 0.37167022 0.19008516 0.625 0.25
		 0.71014899 0.25000057 0.625 0.33514962 0.62833536 0.19007543 0.375 0 0.375 1 0.28985038
		 0 0.37499985 0.9148497 0.37560162 0.073876634 0.625 0 0.625 1 0.62500012 0.91484958
		 0.71014959 0 0.62440664 0.073886365;
	setAttr ".cuvs" -type "string" "map1";
	setAttr ".dcc" -type "string" "Ambient+Diffuse";
	setAttr ".covm[0]"  0 1 1;
	setAttr ".cdvm[0]"  0 1 1;
	setAttr -s 48 ".pt[0:47]" -type "float3"  -0.042162791 -0.11693027 
		0.082612753 -0.041969687 -0.11268258 0.082612753 -0.041503474 -0.11092303 0.082612753 
		-0.032693628 -0.11092303 0.082612753 -0.032227412 -0.11268258 0.082612753 -0.0320343 
		-0.11693027 0.082612753 -0.041503474 -0.12594266 0.082612753 -0.041969687 -0.12418331 
		0.082612753 -0.042162791 -0.11993553 0.082612753 -0.0320343 -0.11993553 0.082612753 
		-0.032227412 -0.12418331 0.082612753 -0.032693628 -0.12594266 0.082612753 -0.04147689 
		-0.11214098 0.089109585 -0.041412696 -0.11508127 0.090327501 -0.041503474 -0.11092303 
		0.086169273 -0.032720212 -0.11214098 0.089109585 -0.032693628 -0.11092303 0.086169273 
		-0.032784402 -0.11508127 0.090327501 -0.04147689 -0.12472482 0.089109585 -0.041503474 
		-0.12594266 0.086169273 -0.041412696 -0.12178452 0.090327501 -0.032720212 -0.12472482 
		0.089109585 -0.032784402 -0.12178452 0.090327501 -0.032693628 -0.12594266 0.086169273 
		-0.042029124 -0.11717244 0.089109585 -0.042162791 -0.11693027 0.086169273 -0.041706409 
		-0.11775745 0.090327501 -0.042029124 -0.11969326 0.089109585 -0.041706409 -0.11910834 
		0.090327501 -0.042162791 -0.11993553 0.086169273 -0.032167979 -0.11717244 0.089109585 
		-0.032490686 -0.11775745 0.090327501 -0.0320343 -0.11693027 0.086169273 -0.032167979 
		-0.11969326 0.089109585 -0.0320343 -0.11993553 0.086169273 -0.032490686 -0.11910834 
		0.090327501 -0.041867379 -0.11361466 0.089109585 -0.041969687 -0.11268258 0.086169273 
		-0.041620385 -0.11586514 0.090327501 -0.032329723 -0.11361466 0.089109585 -0.032227412 
		-0.11268258 0.086169273 -0.032576714 -0.11586514 0.090327501 -0.041867379 -0.12325123 
		0.089109585 -0.041969687 -0.12418331 0.086169273 -0.041620385 -0.12100074 0.090327501 
		-0.032329723 -0.12325123 0.089109585 -0.032227412 -0.12418331 0.086169273 -0.032576714 
		-0.12100074 0.090327501;
	setAttr -s 48 ".vt[0:47]"  -0.229533 2.83694935 0.23035115 -0.22383048 2.85071659 0.23035115
		 -0.21006306 2.85641932 0.23035115 0.050094333 2.85641932 0.23035115 0.063861668 2.85071659 0.23035115
		 0.069564283 2.83694935 0.23035115 -0.21006306 2.8077395 0.23035115 -0.22383048 2.81344175 0.23035115
		 -0.229533 2.82720923 0.23035115 0.069564283 2.82720923 0.23035115 0.063861668 2.81344175 0.23035115
		 0.050094333 2.8077395 0.23035115 -0.20927796 2.85247183 0.25140789 -0.20738234 2.84294224 0.25535524
		 -0.21006306 2.85641932 0.24187811 0.049309172 2.85247183 0.25140789 0.050094333 2.85641932 0.24187811
		 0.047413621 2.84294224 0.25535524 -0.20927796 2.81168675 0.25140789 -0.21006306 2.8077395 0.24187811
		 -0.20738234 2.82121634 0.25535524 0.049309172 2.81168675 0.25140789 0.047413621 2.82121634 0.25535524
		 0.050094333 2.8077395 0.24187811 -0.22558565 2.83616447 0.25140789 -0.229533 2.83694935 0.24187811
		 -0.21605587 2.83426857 0.25535524 -0.22558565 2.82799435 0.25140789 -0.21605587 2.82989025 0.25535524
		 -0.229533 2.82720923 0.24187811 0.065616891 2.83616447 0.25140789 0.056087088 2.83426857 0.25535524
		 0.069564283 2.83694935 0.24187811 0.065616891 2.82799435 0.25140789 0.069564283 2.82720923 0.24187811
		 0.056087088 2.82989025 0.25535524 -0.22080931 2.84769559 0.25140789 -0.22383048 2.85071659 0.24187811
		 -0.21351548 2.84040165 0.25535524 0.060840499 2.84769559 0.25140789 0.063861668 2.85071659 0.24187811
		 0.053546701 2.84040165 0.25535524 -0.22080931 2.81646276 0.25140789 -0.22383048 2.81344175 0.24187811
		 -0.21351548 2.82375669 0.25535524 0.060840499 2.81646276 0.25140789 0.063861668 2.81344175 0.24187811
		 0.053546701 2.82375669 0.25535524;
	setAttr -s 84 ".ed[0:83]"  0 8 0 2 3 0 5 9 0 6 11 0 1 0 0 2 1 0 4 3 0
		 5 4 0 7 6 0 8 7 0 10 9 0 11 10 0 13 12 1 12 36 0 36 38 1 38 13 1 12 14 1 14 37 1
		 37 36 0 12 15 0 15 16 1 16 14 1 13 17 1 17 15 1 15 39 0 39 40 0 40 16 1 17 41 1 41 39 1
		 19 18 1 18 42 0 42 43 0 43 19 1 18 20 1 20 44 1 44 42 1 18 21 0 21 22 1 22 20 1 19 23 1
		 23 21 1 21 45 0 45 47 1 47 22 1 23 46 1 46 45 0 25 24 1 24 36 0 37 25 1 24 26 1 26 38 1
		 24 27 0 27 28 1 28 26 1 25 29 1 29 27 1 27 42 0 44 28 1 29 43 1 31 30 1 30 39 0 41 31 1
		 30 32 1 32 40 1 30 33 0 33 34 1 34 32 1 31 35 1 35 33 1 33 45 0 46 34 1 35 47 1 2 14 1
		 16 3 1 19 6 1 11 23 1 34 9 1 5 32 1 8 29 1 25 0 1 37 1 0 40 4 0 43 7 0 46 10 0;
	setAttr -s 37 -ch 156 ".fc[0:36]" -type "polyFaces" 
		f 4 12 13 14 15
		mu 0 4 17 16 42 45
		f 4 16 17 18 -14
		mu 0 4 16 18 43 42
		f 4 -17 19 20 21
		mu 0 4 18 16 19 20
		f 4 -13 22 23 -20
		mu 0 4 16 17 21 19
		f 4 -21 24 25 26
		mu 0 4 20 19 46 48
		f 4 -24 27 28 -25
		mu 0 4 19 21 49 46
		f 4 29 30 31 32
		mu 0 4 24 22 51 53
		f 4 33 34 35 -31
		mu 0 4 23 25 54 50
		f 4 -34 36 37 38
		mu 0 4 25 23 27 28
		f 4 -30 39 40 -37
		mu 0 4 22 24 29 26
		f 4 -38 41 42 43
		mu 0 4 28 27 55 59
		f 4 -41 44 45 -42
		mu 0 4 26 29 57 56
		f 4 46 47 -19 48
		mu 0 4 31 30 42 44
		f 4 49 50 -15 -48
		mu 0 4 30 32 45 42
		f 4 -50 51 52 53
		mu 0 4 32 30 33 34
		f 4 -47 54 55 -52
		mu 0 4 30 31 35 33
		f 4 -53 56 -36 57
		mu 0 4 34 33 50 54
		f 4 -56 58 -32 -57
		mu 0 4 33 35 52 50
		f 4 59 60 -29 61
		mu 0 4 37 36 46 49
		f 4 62 63 -26 -61
		mu 0 4 36 38 47 46
		f 4 -63 64 65 66
		mu 0 4 38 36 39 40
		f 4 -60 67 68 -65
		mu 0 4 36 37 41 39
		f 4 -66 69 -46 70
		mu 0 4 40 39 55 58
		f 4 -69 71 -43 -70
		mu 0 4 39 41 59 55
		f 4 72 -22 73 -2
		mu 0 4 5 18 20 0
		f 4 74 3 75 -40
		mu 0 4 24 1 14 29
		f 4 76 -3 77 -67
		mu 0 4 40 2 8 38
		f 4 78 -55 79 0
		mu 0 4 11 35 31 3
		f 4 -49 80 4 -80
		mu 0 4 31 44 4 3
		f 4 -18 -73 5 -81
		mu 0 4 43 18 5 6
		f 4 -27 81 6 -74
		mu 0 4 20 48 7 0
		f 4 -64 -78 7 -82
		mu 0 4 47 38 8 9
		f 4 -33 82 8 -75
		mu 0 4 24 53 10 1
		f 4 -59 -79 9 -83
		mu 0 4 52 35 11 12
		f 4 -71 83 10 -77
		mu 0 4 40 58 13 2
		f 4 -45 -76 11 -84
		mu 0 4 57 29 14 15
		f 12 -58 -35 -39 -44 -72 -68 -62 -28 -23 -16 -51 -54
		mu 0 12 34 54 25 28 59 41 37 49 21 17 45 32;
	setAttr ".cd" -type "dataPolyComponent" Index_Data Edge 0 ;
	setAttr ".cvd" -type "dataPolyComponent" Index_Data Vertex 0 ;
	setAttr ".hfd" -type "dataPolyComponent" Index_Data Face 0 ;
createNode transform -n "pCube5" -p "A";
	setAttr ".rp" -type "double3" 0 -0.11329899890910781 2.2204460492503131e-018 ;
	setAttr ".sp" -type "double3" 0 -0.11329899890910781 2.2204460492503131e-018 ;
createNode mesh -n "pCube5Shape" -p "pCube5";
	setAttr -k off ".v";
	setAttr ".iog[0].og[0].gcl" -type "componentList" 1 "f[0:51]";
	setAttr ".vir" yes;
	setAttr ".vif" yes;
	setAttr ".pv" -type "double2" 0.5 0.5 ;
	setAttr ".uvst[0].uvsn" -type "string" "map1";
	setAttr -s 68 ".uvst[0].uvsp[0:67]" -type "float2" 0.375 0 0.625 0 0.375
		 0.25 0.625 0.25 0.375 0.5 0.625 0.5 0.375 0.75 0.625 0.75 0.375 1 0.625 1 0.875 0
		 0.875 0.25 0.125 0 0.125 0.25 0.125 0 0.375 0 0.375 0.25 0.125 0.25 0.125 0 0.375
		 0 0.375 0.25 0.125 0.25 0.125 0.25 0.375 0.25 0.375 0 0.125 0 0.125 0 0.375 0 0.375
		 0.25 0.125 0.25 0.125 0 0.375 0 0.375 0.25 0.125 0.25 0.375 0 0.625 0 0.625 0.25
		 0.375 0.25 0.625 0.5 0.375 0.5 0.625 0.75 0.375 0.75 0.625 1 0.375 1 0.875 0 0.875
		 0.25 0.125 0 0.375 0 0.375 0.25 0.125 0.25 0.125 0 0.375 0 0.125 0 0.375 0.25 0.125
		 0.25 0.125 0.25 0.375 0 0.125 0 0.375 0.25 0.125 0.25 0.125 0.25 0.375 0.25 0.375
		 0 0.125 0 0.375 0 0.125 0 0.375 0.25 0.125 0.25;
	setAttr ".cuvs" -type "string" "map1";
	setAttr ".dcc" -type "string" "Ambient+Diffuse";
	setAttr ".covm[0]"  0 1 1;
	setAttr ".cdvm[0]"  0 1 1;
	setAttr -s 56 ".pt[0:55]" -type "float3"  0 -0.113299 0 0 -0.113299 
		0 0 -0.113299 0 0 -0.113299 0 0 -0.113299 0 0 -0.113299 0 0 -0.113299 0 0 -0.113299 
		0 0 -0.113299 0 0 -0.113299 0 0 -0.113299 0 0 -0.113299 0 0 -0.113299 0 0 -0.113299 
		0 0 -0.113299 0 0 -0.113299 0 0 -0.113299 0 0 -0.113299 0 0 -0.113299 0 0 -0.113299 
		0 0 -0.113299 0 0 -0.113299 0 0 -0.113299 0 0 -0.113299 0 0 -0.113299 0 0 -0.113299 
		2.220446e-018 0 -0.113299 2.220446e-018 0 -0.113299 0 0 -0.113299 0 0 -0.113299 0 
		0 -0.113299 0 0 -0.113299 0 0 -0.113299 0 0 -0.113299 0 0 -0.113299 0 0 -0.113299 
		0 0 -0.113299 0 0 -0.113299 0 0 -0.113299 0 0 -0.113299 0 0 -0.113299 0 0 -0.113299 
		0 0 -0.113299 0 0 -0.113299 0 0 -0.113299 0 0 -0.113299 0 0 -0.113299 0 0 -0.113299 
		0 0 -0.113299 0 0 -0.113299 0 0 -0.113299 0 0 -0.113299 0 0 -0.113299 0 0 -0.113299 
		2.220446e-018 0 -0.113299 2.220446e-018 0 -0.113299 0;
	setAttr -s 56 ".vt[0:55]"  0.69369197 2.79321599 0.035344552 0.47930622 2.78574157 0.08083915
		 0.69369197 2.83782339 0.035344381 0.47930622 2.84529781 0.080838859 0.69369185 2.83782315 -0.23616622
		 0.47930622 2.84529781 -0.2816608 0.69369197 2.79321599 -0.23616622 0.47930622 2.78574157 -0.28166077
		 0.91195649 2.79321599 -0.23616622 0.91195649 2.79321599 0.035344552 0.91195649 2.83782339 0.035344381
		 0.91195649 2.83782315 -0.23616622 1.28561091 2.79321599 -0.23616622 1.28561091 2.79321599 0.035344552
		 1.28561091 2.83782339 0.035344381 1.28561091 2.83782315 -0.23616622 1.099617839 2.83782315 -0.23616622
		 1.099617839 2.83782339 0.035344381 1.099617839 2.79321599 0.035344552 1.099617839 2.79321599 -0.23616622
		 1.46874666 2.79321599 -0.23616622 1.46874666 2.79321599 0.035344552 1.46874666 2.83782339 0.035344381
		 1.46874666 2.83782315 -0.23616622 1.53280306 2.79321599 -0.20564167 1.53280306 2.79321599 0.0048199939
		 1.53280306 2.83782339 0.0048198607 1.53280306 2.83782315 -0.20564167 -0.69369197 2.79321599 0.035344552
		 -0.47930622 2.78574157 0.08083915 -0.69369197 2.83782339 0.035344381 -0.47930622 2.84529781 0.080838859
		 -0.69369185 2.83782315 -0.23616622 -0.47930622 2.84529781 -0.2816608 -0.69369197 2.79321599 -0.23616622
		 -0.47930622 2.78574157 -0.28166077 -0.91195649 2.79321599 -0.23616622 -0.91195649 2.79321599 0.035344552
		 -0.91195649 2.83782339 0.035344381 -0.91195649 2.83782315 -0.23616622 -1.28561091 2.79321599 -0.23616622
		 -1.28561091 2.79321599 0.035344552 -1.28561091 2.83782339 0.035344381 -1.28561091 2.83782315 -0.23616622
		 -1.099617839 2.83782315 -0.23616622 -1.099617839 2.83782339 0.035344381 -1.099617839 2.79321599 0.035344552
		 -1.099617839 2.79321599 -0.23616622 -1.46874666 2.79321599 -0.23616622 -1.46874666 2.79321599 0.035344552
		 -1.46874666 2.83782339 0.035344381 -1.46874666 2.83782315 -0.23616622 -1.53280306 2.79321599 -0.20564167
		 -1.53280306 2.79321599 0.0048199939 -1.53280306 2.83782339 0.0048198607 -1.53280306 2.83782315 -0.20564167;
	setAttr -s 104 ".ed[0:103]"  0 1 0 2 3 0 4 5 0 6 7 0 0 2 1 1 3 0 2 4 1
		 3 5 0 4 6 1 5 7 0 6 0 1 7 1 0 6 8 1 0 9 1 8 9 1 2 10 1 9 10 1 4 11 1 10 11 1 11 8 1
		 8 19 1 9 18 1 12 13 1 10 17 1 13 14 1 11 16 1 14 15 1 15 12 1 16 15 1 17 14 1 16 17 1
		 18 13 1 17 18 1 19 12 1 18 19 1 19 16 1 12 20 1 13 21 1 20 21 1 14 22 1 21 22 1 15 23 1
		 22 23 1 23 20 1 20 24 1 21 25 1 24 25 1 22 26 1 25 26 1 23 27 1 26 27 1 27 24 1 28 29 0
		 30 31 0 32 33 0 34 35 0 28 30 1 29 31 0 30 32 1 31 33 0 32 34 1 33 35 0 34 28 1 35 29 0
		 34 36 1 28 37 1 36 37 1 30 38 1 37 38 1 32 39 1 38 39 1 39 36 1 36 47 1 37 46 1 40 41 1
		 38 45 1 41 42 1 39 44 1 42 43 1 43 40 1 44 43 1 45 42 1 44 45 1 46 41 1 45 46 1 47 40 1
		 46 47 1 47 44 1 40 48 1 41 49 1 48 49 1 42 50 1 49 50 1 43 51 1 50 51 1 51 48 1 48 52 1
		 49 53 1 52 53 1 50 54 1 53 54 1 51 55 1 54 55 1 55 52 1;
	setAttr -s 52 -ch 208 ".fc[0:51]" -type "polyFaces" 
		f 4 4 1 -6 -1
		mu 0 4 0 2 3 1
		f 4 6 2 -8 -2
		mu 0 4 2 4 5 3
		f 4 8 3 -10 -3
		mu 0 4 4 6 7 5
		f 4 10 0 -12 -4
		mu 0 4 6 8 9 7
		f 4 5 7 9 11
		mu 0 4 1 3 11 10
		f 4 -52 -51 -49 -47
		mu 0 4 30 33 32 31
		f 4 12 14 -14 -11
		mu 0 4 12 14 15 0
		f 4 13 16 -16 -5
		mu 0 4 0 15 16 2
		f 4 15 18 -18 -7
		mu 0 4 2 16 17 13
		f 4 17 19 -13 -9
		mu 0 4 13 17 14 12
		f 4 20 -35 -22 -15
		mu 0 4 14 25 24 15
		f 4 21 -33 -24 -17
		mu 0 4 15 24 23 16
		f 4 23 -31 -26 -19
		mu 0 4 16 23 22 17
		f 4 25 -36 -21 -20
		mu 0 4 17 22 25 14
		f 4 29 26 -29 30
		mu 0 4 23 20 21 22
		f 4 31 24 -30 32
		mu 0 4 24 19 20 23
		f 4 33 22 -32 34
		mu 0 4 25 18 19 24
		f 4 28 27 -34 35
		mu 0 4 22 21 18 25
		f 4 36 38 -38 -23
		mu 0 4 18 26 27 19
		f 4 37 40 -40 -25
		mu 0 4 19 27 28 20
		f 4 39 42 -42 -27
		mu 0 4 20 28 29 21
		f 4 41 43 -37 -28
		mu 0 4 21 29 26 18
		f 4 44 46 -46 -39
		mu 0 4 26 30 31 27
		f 4 45 48 -48 -41
		mu 0 4 27 31 32 28
		f 4 47 50 -50 -43
		mu 0 4 28 32 33 29
		f 4 49 51 -45 -44
		mu 0 4 29 33 30 26
		f 4 52 57 -54 -57
		mu 0 4 34 35 36 37
		f 4 53 59 -55 -59
		mu 0 4 37 36 38 39
		f 4 54 61 -56 -61
		mu 0 4 39 38 40 41
		f 4 55 63 -53 -63
		mu 0 4 41 40 42 43
		f 4 -64 -62 -60 -58
		mu 0 4 35 44 45 36
		f 4 98 100 102 103
		mu 0 4 46 47 48 49
		f 4 62 65 -67 -65
		mu 0 4 50 34 51 52
		f 4 56 67 -69 -66
		mu 0 4 34 37 53 51
		f 4 58 69 -71 -68
		mu 0 4 37 54 55 53
		f 4 60 64 -72 -70
		mu 0 4 54 50 52 55
		f 4 66 73 86 -73
		mu 0 4 52 51 56 57
		f 4 68 75 84 -74
		mu 0 4 51 53 58 56
		f 4 70 77 82 -76
		mu 0 4 53 55 59 58
		f 4 71 72 87 -78
		mu 0 4 55 52 57 59
		f 4 -83 80 -79 -82
		mu 0 4 58 59 60 61
		f 4 -85 81 -77 -84
		mu 0 4 56 58 61 62
		f 4 -87 83 -75 -86
		mu 0 4 57 56 62 63
		f 4 -88 85 -80 -81
		mu 0 4 59 57 63 60
		f 4 74 89 -91 -89
		mu 0 4 63 62 64 65
		f 4 76 91 -93 -90
		mu 0 4 62 61 66 64
		f 4 78 93 -95 -92
		mu 0 4 61 60 67 66
		f 4 79 88 -96 -94
		mu 0 4 60 63 65 67
		f 4 90 97 -99 -97
		mu 0 4 65 64 47 46
		f 4 92 99 -101 -98
		mu 0 4 64 66 48 47
		f 4 94 101 -103 -100
		mu 0 4 66 67 49 48
		f 4 95 96 -104 -102
		mu 0 4 67 65 46 49;
	setAttr ".cd" -type "dataPolyComponent" Index_Data Edge 0 ;
	setAttr ".cvd" -type "dataPolyComponent" Index_Data Vertex 0 ;
	setAttr ".hfd" -type "dataPolyComponent" Index_Data Face 0 ;
createNode lightLinker -s -n "lightLinker1";
	setAttr -s 4 ".lnk";
	setAttr -s 4 ".slnk";
createNode displayLayerManager -n "layerManager";
createNode displayLayer -n "defaultLayer";
createNode renderLayerManager -n "renderLayerManager";
createNode renderLayer -n "defaultRenderLayer";
	setAttr ".g" yes;
createNode script -n "sceneConfigurationScriptNode";
	setAttr ".b" -type "string" "playbackOptions -min 0 -max 20 -ast 0 -aet 20 ";
	setAttr ".st" 6;
createNode polyMapSewMove -n "polyMapSewMove1";
	setAttr ".uopa" yes;
	setAttr ".ics" -type "componentList" 1 "e[6]";
createNode reference -n "ThomasRN";
	setAttr ".ed" -type "dataReferenceEdits" 
		"ThomasRN"
		"ThomasRN" 0;
lockNode -l 1 ;
createNode groupId -n "groupId1";
	setAttr ".ihi" 0;
select -ne :time1;
	setAttr ".o" 0;
select -ne :renderPartition;
	setAttr -s 3 ".st";
select -ne :renderGlobalsList1;
select -ne :defaultShaderList1;
	setAttr -s 3 ".s";
select -ne :postProcessList1;
	setAttr -s 2 ".p";
select -ne :defaultRenderUtilityList1;
select -ne :defaultRenderingList1;
select -ne :defaultTextureList1;
select -ne :initialShadingGroup;
	setAttr -s 4 ".dsm";
	setAttr ".ro" yes;
select -ne :initialParticleSE;
	setAttr ".ro" yes;
select -ne :defaultResolution;
	setAttr ".pa" 1;
select -ne :hardwareRenderGlobals;
	setAttr ".ctrs" 256;
	setAttr ".btrs" 512;
select -ne :hardwareRenderingGlobals;
	setAttr ".otfna" -type "stringArray" 22 "NURBS Curves" "NURBS Surfaces" "Polygons" "Subdiv Surface" "Particles" "Particle Instance" "Fluids" "Strokes" "Image Planes" "UI" "Lights" "Cameras" "Locators" "Joints" "IK Handles" "Deformers" "Motion Trails" "Components" "Hair Systems" "Follicles" "Misc. UI" "Ornaments"  ;
	setAttr ".otfva" -type "Int32Array" 22 0 1 1 1 1 1
		 1 1 1 0 0 0 0 0 0 0 0 0
		 0 0 0 0 ;
select -ne :defaultHardwareRenderGlobals;
	setAttr ".res" -type "string" "ntsc_4d 646 485 1.333";
connectAttr "groupId1.id" "pCube5Shape.iog.og[0].gid";
connectAttr ":initialShadingGroup.mwc" "pCube5Shape.iog.og[0].gco";
relationship "link" ":lightLinker1" ":initialShadingGroup.message" ":defaultLightSet.message";
relationship "link" ":lightLinker1" ":initialParticleSE.message" ":defaultLightSet.message";
relationship "shadowLink" ":lightLinker1" ":initialShadingGroup.message" ":defaultLightSet.message";
relationship "shadowLink" ":lightLinker1" ":initialParticleSE.message" ":defaultLightSet.message";
connectAttr "layerManager.dli[0]" "defaultLayer.id";
connectAttr "renderLayerManager.rlmi[0]" "defaultRenderLayer.rlid";
connectAttr "defaultRenderLayer.msg" ":defaultRenderingList1.r" -na;
connectAttr "pCubeShape1.iog" ":initialShadingGroup.dsm" -na;
connectAttr "pCylinderShape1.iog" ":initialShadingGroup.dsm" -na;
connectAttr "pCubeShape2.iog" ":initialShadingGroup.dsm" -na;
connectAttr "pCube5Shape.iog.og[0]" ":initialShadingGroup.dsm" -na;
connectAttr "groupId1.msg" ":initialShadingGroup.gn" -na;
dataStructure -fmt "raw" -as "name=externalContentTable:string=node:string=key:string=upath:uint32=upathcrc:string=rpath:string=roles";
applyMetadata -fmt "raw" -v "channel\nname externalContentTable\nstream\nname v1.0\nindexType numeric\nstructure externalContentTable\n0\n\"ThomasRN\" \"\" \"G:/ninjaegg-nngj2-bteam/3D/Scenes/Assets/Level/_LDN/LVL_Planet_A.ma\" 6766873 \"G:/ninjaegg-nngj2-bteam/3D/Scenes/Assets/Level/_LDN/LVL_Planet_A.ma\" \"FileRef\"\nendStream\nendChannel\nendAssociations\n" 
		-scn;
// End of CH_Tokei_A.ma
